<?xml version="1.0" encoding="utf-8"?>
<!-- Generator: Adobe Illustrator 14.0.0, SVG Export Plug-In . SVG Version: 6.00 Build 43363)  -->
<!DOCTYPE svg PUBLIC "-//W3C//DTD SVG 1.1//EN" "http://www.w3.org/Graphics/SVG/1.1/DTD/svg11.dtd">
<svg version="1.1" id="Layer_1" xmlns="http://www.w3.org/2000/svg" xmlns:xlink="http://www.w3.org/1999/xlink" x="0px" y="0px"
	 width="792px" height="612px" viewBox="0 0 792 612" enable-background="new 0 0 792 612" xml:space="preserve">
<g>
	<defs>
		<rect id="SVGID_1_" x="259" y="164.262" width="326.896" height="299.738"/>
	</defs>
	<clipPath id="SVGID_2_">
		<use xlink:href="#SVGID_1_"  overflow="visible"/>
	</clipPath>
	<path clip-path="url(#SVGID_2_)" fill="#E7B173" d="M325.826,236.086c5.473-12.588,41.047-77.715,108.909-63.485
		c67.864,14.229,71.148,53.087,73.884,59.654c54.388-70.02,73.475,2.543,21.344,64.58c97.966,80.998,3.285,114.93-30.1,120.95
		c-64.58,60.201-339.866,18.061-190.457-104.531C245.375,279.869,259.057,154.54,325.826,236.086"/>
	<path clip-path="url(#SVGID_2_)" fill="#CF8760" d="M334.58,291.638c-103.985,76.619-54.227,125.445-39.72,138.815
		c14.506,13.369,123.519,41.516,206.604-10.771c61.218-13.153,66.847-26.522,75.291-43.951
		c8.443-17.429-13.717-56.651-47.447-75.148c43.627,59.107,9.125,96.582-19.238,99.397c-28.363,2.813-27.876-11.746-63.49-13.153
		c-35.617-1.407-51.205,15.426-83.033,15.426C331.721,402.252,296.584,362.111,334.58,291.638"/>
	<path clip-path="url(#SVGID_2_)" fill="#848F95" d="M571.92,354.5c18.695,36.055-37.835,61.638-71.219,67.658
		c-158.961,97.404-338.589-47.182-125.821-99.707c4.896,4.822,18.992,2.226,62.429,17.916c11.086,4.005,21.551-20.401,45.588-30.379
		C509.604,310.878,559.011,319.559,571.92,354.5"/>
	<path clip-path="url(#SVGID_2_)" fill="#5D6D76" d="M272.969,364.985c-11.494,35.678,12.594,56.898,21.891,65.468
		c14.506,13.369,123.52,41.515,206.604-10.771c61.218-13.153,66.847-26.522,75.291-43.951c8.444-17.43-38.322,21.434-66.685,24.249
		c-28.362,2.814-27.875-11.746-63.491-13.153s-51.204,15.426-83.031,15.426c-23.03,0-47.795-21.019-45.327-59.34
		C305.787,348.36,294.498,353.968,272.969,364.985"/>
	<path clip-path="url(#SVGID_2_)" fill="#CF8760" d="M311.05,300.546c5.507-1.579,6.419-15.247,2.037-30.528
		s-12.398-26.389-17.905-24.81s-6.419,15.247-2.037,30.527C297.527,291.017,305.543,302.125,311.05,300.546"/>
	<path clip-path="url(#SVGID_2_)" fill="#CF8760" d="M517.191,284.499c5.272,2.238,21.041-7.387,27.254-22.02
		c6.211-14.635,7.568-22.078,2.296-24.316c-5.274-2.239-14.584,7.809-20.796,22.442
		C519.734,275.239,511.918,282.261,517.191,284.499"/>
	<path clip-path="url(#SVGID_2_)" d="M317.136,300.394c7.922-47.367-26.065-78.379-26.065-45.354c1.369-4.521,2.174-5.8,3.448-6.693
		c6.403-4.487,15.358,4.209,15.358,42.942C309.604,296.954,316.482,302.708,317.136,300.394"/>
	<path clip-path="url(#SVGID_2_)" d="M513.707,286.344c3.773-47.877,44.252-69.745,36.264-37.701
		c-0.234-4.718-0.706-6.152-1.727-7.328c-5.127-5.904-15.922,0.368-25.291,37.95C521.848,284.828,513.781,288.747,513.707,286.344"
		/>
	<path clip-path="url(#SVGID_2_)" fill="#FFFFFF" d="M368.156,253.519c40.855-73.145,91.123-24.874,98.32-11.958
		C456.625,265.34,411.502,289.229,368.156,253.519"/>
	<path clip-path="url(#SVGID_2_)" fill="#72BF44" d="M417.729,270.723c16.322,0,29.555-13.231,29.555-29.554
		c0-16.321-13.232-29.553-29.555-29.553c-16.321,0-29.553,13.231-29.553,29.553C388.176,257.491,401.407,270.723,417.729,270.723"/>
	<path clip-path="url(#SVGID_2_)" fill="#00642D" d="M417.729,260.656c10.763,0,19.486-8.725,19.486-19.486
		s-8.724-19.487-19.486-19.487c-10.762,0-19.485,8.726-19.485,19.487S406.967,260.656,417.729,260.656"/>
	<path clip-path="url(#SVGID_2_)" d="M417.729,251.146c5.51,0,9.978-4.467,9.978-9.977c0-5.511-4.468-9.978-9.978-9.978
		s-9.977,4.467-9.977,9.978C407.752,246.68,412.219,251.146,417.729,251.146"/>
	<path clip-path="url(#SVGID_2_)" fill="#FFFFFF" d="M415.846,240.712c-3.481,0.123-10.398,4.434-14.461,10.836
		c1.265,2.833,3.59,5.15,8.461,7.513C410.641,253.004,411.748,247.731,415.846,240.712"/>
	<path clip-path="url(#SVGID_2_)" fill="#CF8760" d="M283.537,216.454c12.73,0.29,39.984,30.73,49.257,49.509
		c5.505-29.264,17.384-58.817,53.022-83.735c-14.088,6.085-28.975,9.272-59.343,55.341
		C320.045,233.223,300.343,206.603,283.537,216.454"/>
	<path clip-path="url(#SVGID_2_)" fill="#CF8760" d="M548.447,210.325c-12.73,0.29-33.756,34.28-43.026,53.06
		c1.05-26.693-7.858-43.864-18.228-56.249c13.601,10.141,22.772,26.08,22.772,26.08
		C516.394,228.868,533.127,208.588,548.447,210.325"/>
	<path clip-path="url(#SVGID_2_)" d="M527.499,299.861c14.425,2.742,92.883,88.372-27.794,118.63
		c-90.42,56.668-310.556,2.463-186.092-104.142c-45.059-21.462-36.77-93.57-29.786-97.062c2.317-1.159,15.937-2.318,42.778,23.883
		c70.365-116.455,181.121-33.997,181.191-0.574c8.377-11.123,29.447-29.104,40.328-29.104
		C554.355,211.492,573.696,244.245,527.499,299.861 M534.614,298.205c52.54-50.624,31.032-105.9,21.454-105.9
		c-10.006,0-33.555,20.216-44.715,37.215c-4.787-43.509-120.391-124.508-185.256,4.927c-17.021-23.982-43.252-42.155-50.094-38.927
		c-20.906,9.868-18.619,98.199,27.655,119.651c-131.81,106.604,56.385,205.78,199.212,110.278
		C656.386,408.483,553.641,299.666,534.614,298.205"/>
	<path clip-path="url(#SVGID_2_)" fill="#CF8760" d="M369.881,254.519c15.392,15.501,45.1,19.194,45.1,19.194l-16.932,14.705
		c0,0-25.85-1.014-42.365-15.628C359.25,265.374,365.263,250.751,369.881,254.519"/>
	<path clip-path="url(#SVGID_2_)" fill="#CF8760" d="M466.668,240.959c-13.053,17.239-37.211,32.422-37.211,32.422
		s31.406-6.503,46.73-24.482C472.621,241.483,471.286,237.191,466.668,240.959"/>
	<path clip-path="url(#SVGID_2_)" d="M463.059,241.279c-38.539,50.857-86.448,17.971-90.133,10.74
		C406.001,201.39,458.189,230.615,463.059,241.279 M481.059,256.65c-11.373-42.961-89.961-82.681-125.709,16.218
		c6.625-10.108,10.387-13.53,13.545-16.218c56.81,43.627,89.41,0.527,98.185-14.215C472.333,246.705,472.137,246.028,481.059,256.65
		"/>
	<path clip-path="url(#SVGID_2_)" fill="#00874B" d="M562.078,305.569c5.186-3.314,2.662-13.694-3.699-22.611
		c-1.76-2.469-3.723-4.684-5.647-6.462c-0.573,0.807-1.884,2.896-2.985,4.447c2.775,2.393,10.035,14.018,5.918,15.919
		c-2.01,1.434-4.285-1.215-8.994-7.145c-3.754-4.726-5.854-11.087-4.992-13.141c-0.598-2.81-3.545-2.208-4.031-0.798
		c-2.699,2.724-1.761,12.106,3.143,19.039C550.481,307.417,557.295,308.627,562.078,305.569"/>
	<path clip-path="url(#SVGID_2_)" fill="#50B848" d="M562.688,303.774c3.89-2.774,2.053-11.899-4.309-20.816
		c-1.76-2.468-3.724-4.684-5.648-6.463c-0.572,0.807-0.741,1.224-1.842,2.774c1.424,1.69,2.813,3.562,4.385,5.847
		c2.82,4.103,4.632,9.307,2.752,10.62c-2.01,1.434-6.646-0.089-11.355-6.019c-3.754-4.725-5.855-11.087-4.992-13.141
		c-0.599-2.81-3.545-2.207-4.031-0.797c-0.825,3.615,1.343,10.502,6.244,17.434C550.783,302.959,558.797,306.55,562.688,303.774"/>
	<path clip-path="url(#SVGID_2_)" fill="#CF8760" d="M392.133,298.166c-5.887,2.506-20.873,12.49-12.861,24.601
		c18.009,2.134,16.678,2.628,22.701,6.528c19.156,12.404,33.295,18.515,33.295,18.515l-2.359-11.781
		c0,0-38.562-20.411-42.152-23.369C387.166,309.701,383.408,307.795,392.133,298.166"/>
	<path clip-path="url(#SVGID_2_)" fill="#CF8760" d="M413.001,275.613c-6.294,0.807-14.85,10.865-15.495,12.701
		c11.823,2.215,30.254,35.978,28.459,30.264C424.17,312.866,413.817,278.552,413.001,275.613"/>
	<path clip-path="url(#SVGID_2_)" d="M414.818,274.195c4.869,5.639,6.168,16.417,10.369,43.459
		c-4.826-20.533-13.288-39.699-19.298-43.604C407.781,270.154,409.562,273.619,414.818,274.195"/>
	<path clip-path="url(#SVGID_2_)" fill="#5D6D76" d="M333.145,376.553c-2.559,6.829-1.225,23.688,17.137,22.814
		c33.051-2.448,104.922-44.485,129.995-45.36C454.854,352.608,342.062,392.466,333.145,376.553"/>
	<path clip-path="url(#SVGID_2_)" fill="#5D6D76" d="M369.902,323.72c-2.559,6.829-0.213,20.42,8.533,21.531
		c-3.634-14.747,31.934,3.391,57.008,2.517C406.732,333.101,376.757,322.741,369.902,323.72"/>
	<path clip-path="url(#SVGID_2_)" d="M353.257,386.623c31.811,0.806,101.874-34.979,140.756-32.869
		c-35.472-7.109-153.892,37.605-158.611,16.009C328.961,375.825,332.731,386.104,353.257,386.623"/>
	<path clip-path="url(#SVGID_2_)" fill="#FFFFFF" d="M362.16,337.273c-8.732,3.386-9.574,39.2-6.749,41.417
		c2.827,2.216,20.794,3.778,32.324-5.542C387.848,371.497,369.828,349.056,362.16,337.273"/>
	<path clip-path="url(#SVGID_2_)" fill="#BCBEC0" d="M361.914,337.273c-8.732,3.386-9.329,39.2-6.502,41.417
		c2.826,2.216,2.475,1.839,17.689,1.593C362.289,369.878,359.697,351.312,361.914,337.273"/>
	<path clip-path="url(#SVGID_2_)" d="M381.862,371.26c-1.724,6.842-19.21,11.821-24.382,3.94c-6.118-12.04,1.641-36.641,4.68-35.218
		C370.287,362.64,382.524,368.635,381.862,371.26 M364.131,332.594c-3.109-7.967-22.166,22.247-12.609,46.035
		c4.292,6.916,43.318-0.983,40.191-6.384C389.004,367.566,370.041,352.543,364.131,332.594"/>
	<path clip-path="url(#SVGID_2_)" d="M392.425,298.037c-33.399,11.576-30.68,29.448-19.303,32.701
		c-4.451-18.918,44.823,19.851,63.233,17.485c16.933-2.174,43.355-46.325,48.252-30.507c19.131-8.349,1-23.046-23.809-25.101
		c6.295,2.208,19.544,8.058,18.23,16.285c-11.938-0.176-25.344,23.177-43.287,26.564c-17.944,3.39-38.641-16.191-55.559-14.891
		C376.872,319.39,375.732,307.385,392.425,298.037"/>
	<path clip-path="url(#SVGID_2_)" d="M527.082,359.702c1.219,0,2.205-0.987,2.205-2.205c0-1.219-0.986-2.205-2.205-2.205
		c-1.218,0-2.205,0.986-2.205,2.205C524.877,358.715,525.864,359.702,527.082,359.702"/>
	<path clip-path="url(#SVGID_2_)" d="M493.043,321.765c1.218,0,2.205-0.987,2.205-2.205s-0.987-2.205-2.205-2.205
		s-2.205,0.987-2.205,2.205S491.825,321.765,493.043,321.765"/>
	<path clip-path="url(#SVGID_2_)" d="M453.658,345.05c1.218,0,2.205-0.987,2.205-2.205s-0.987-2.205-2.205-2.205
		c-1.219,0-2.205,0.987-2.205,2.205S452.439,345.05,453.658,345.05"/>
	<path clip-path="url(#SVGID_2_)" d="M504.06,389.331c1.218,0,2.205-0.987,2.205-2.205s-0.987-2.205-2.205-2.205
		s-2.205,0.987-2.205,2.205S502.842,389.331,504.06,389.331"/>
	<path clip-path="url(#SVGID_2_)" d="M460.866,374.155c1.218,0,2.205-0.986,2.205-2.205c0-1.218-0.987-2.205-2.205-2.205
		s-2.204,0.987-2.204,2.205C458.662,373.169,459.648,374.155,460.866,374.155"/>
	<path clip-path="url(#SVGID_2_)" d="M495.005,343.676c1.218,0,2.204-0.987,2.204-2.205s-0.986-2.205-2.204-2.205
		s-2.205,0.987-2.205,2.205S493.787,343.676,495.005,343.676"/>
	<path clip-path="url(#SVGID_2_)" d="M556.345,341.962c1.218,0,2.205-0.986,2.205-2.205c0-1.218-0.987-2.205-2.205-2.205
		s-2.205,0.987-2.205,2.205C554.14,340.976,555.127,341.962,556.345,341.962"/>
	<path clip-path="url(#SVGID_2_)" d="M521.812,325.872c1.218,0,2.205-0.986,2.205-2.205c0-1.218-0.987-2.205-2.205-2.205
		c-1.219,0-2.205,0.987-2.205,2.205C519.607,324.886,520.594,325.872,521.812,325.872"/>
	<path clip-path="url(#SVGID_2_)" d="M551.992,373.418c1.219,0,2.205-0.987,2.205-2.205s-0.986-2.205-2.205-2.205
		c-1.218,0-2.205,0.987-2.205,2.205S550.774,373.418,551.992,373.418"/>
	<path clip-path="url(#SVGID_2_)" d="M538.092,401.222c1.219,0,2.205-0.987,2.205-2.205s-0.986-2.205-2.205-2.205
		c-1.217,0-2.205,0.987-2.205,2.205S536.875,401.222,538.092,401.222"/>
	<path clip-path="url(#SVGID_2_)" d="M526.359,390.068c1.219,0,2.205-0.986,2.205-2.205c0-1.218-0.986-2.205-2.205-2.205
		c-1.217,0-2.205,0.987-2.205,2.205C524.154,389.082,525.143,390.068,526.359,390.068"/>
	<path clip-path="url(#SVGID_2_)" d="M488.748,366.812c1.219,0,2.205-0.987,2.205-2.205c0-1.219-0.986-2.205-2.205-2.205
		c-1.218,0-2.205,0.986-2.205,2.205C486.543,365.824,487.53,366.812,488.748,366.812"/>
	<path clip-path="url(#SVGID_2_)" d="M471.611,407.069c1.218,0,2.205-0.986,2.205-2.204c0-1.219-0.987-2.205-2.205-2.205
		c-1.219,0-2.205,0.986-2.205,2.205C469.406,406.083,470.393,407.069,471.611,407.069"/>
	<path clip-path="url(#SVGID_2_)" d="M404.559,349.429c1.218,0,2.205-0.986,2.205-2.205c0-1.218-0.987-2.205-2.205-2.205
		s-2.205,0.987-2.205,2.205C402.354,348.442,403.341,349.429,404.559,349.429"/>
	<path clip-path="url(#SVGID_2_)" d="M389.869,362.051c1.219,0,2.205-0.987,2.205-2.205s-0.986-2.205-2.205-2.205
		c-1.218,0-2.205,0.987-2.205,2.205S388.651,362.051,389.869,362.051"/>
	<path clip-path="url(#SVGID_2_)" d="M377.979,340.367c1.219,0,2.205-0.986,2.205-2.204c0-1.219-0.986-2.205-2.205-2.205
		c-1.217,0-2.204,0.986-2.204,2.205C375.774,339.381,376.762,340.367,377.979,340.367"/>
	<path clip-path="url(#SVGID_2_)" d="M341.043,344.288c1.217,0,2.204-0.987,2.204-2.205s-0.987-2.205-2.204-2.205
		c-1.219,0-2.205,0.987-2.205,2.205S339.824,344.288,341.043,344.288"/>
	<path clip-path="url(#SVGID_2_)" d="M313.719,368.521c1.217,0,2.205-0.987,2.205-2.205s-0.988-2.205-2.205-2.205
		c-1.219,0-2.205,0.987-2.205,2.205S312.5,368.521,313.719,368.521"/>
	<path clip-path="url(#SVGID_2_)" d="M330.121,395.087c1.218,0,2.205-0.986,2.205-2.205c0-1.218-0.987-2.204-2.205-2.204
		c-1.219,0-2.205,0.986-2.205,2.204C327.916,394.101,328.902,395.087,330.121,395.087"/>
	<path clip-path="url(#SVGID_2_)" d="M402.791,390.926c1.217,0,2.205-0.987,2.205-2.205s-0.988-2.205-2.205-2.205
		c-1.219,0-2.205,0.987-2.205,2.205S401.572,390.926,402.791,390.926"/>
	<path clip-path="url(#SVGID_2_)" d="M357.785,418.494c1.218,0,2.205-0.986,2.205-2.204c0-1.219-0.987-2.205-2.205-2.205
		c-1.219,0-2.205,0.986-2.205,2.205C355.58,417.508,356.566,418.494,357.785,418.494"/>
	<path clip-path="url(#SVGID_2_)" d="M399.662,418.494c1.219,0,2.205-0.986,2.205-2.204c0-1.219-0.986-2.205-2.205-2.205
		c-1.218,0-2.205,0.986-2.205,2.205C397.457,417.508,398.444,418.494,399.662,418.494"/>
	<path clip-path="url(#SVGID_2_)" d="M438.969,399.861c1.219,0,2.205-0.987,2.205-2.205s-0.986-2.205-2.205-2.205
		c-1.218,0-2.205,0.987-2.205,2.205S437.751,399.861,438.969,399.861"/>
	<path clip-path="url(#SVGID_2_)" d="M435.393,438.216c1.217,0,2.204-0.987,2.204-2.205s-0.987-2.205-2.204-2.205
		c-1.219,0-2.205,0.987-2.205,2.205S434.174,438.216,435.393,438.216"/>
	<path clip-path="url(#SVGID_2_)" d="M375.453,438.624c1.217,0,2.205-0.987,2.205-2.205s-0.988-2.205-2.205-2.205
		c-1.219,0-2.205,0.987-2.205,2.205S374.234,438.624,375.453,438.624"/>
	<path clip-path="url(#SVGID_2_)" d="M427.68,416.299c1.219,0,2.205-0.987,2.205-2.205s-0.986-2.205-2.205-2.205
		c-1.218,0-2.205,0.987-2.205,2.205S426.462,416.299,427.68,416.299"/>
	<path clip-path="url(#SVGID_2_)" d="M418.248,401.014c1.217,0,2.205-0.987,2.205-2.205c0-1.219-0.988-2.205-2.205-2.205
		c-1.219,0-2.205,0.986-2.205,2.205C416.043,400.026,417.029,401.014,418.248,401.014"/>
	<path clip-path="url(#SVGID_2_)" d="M380.877,418.709c1.219,0,2.205-0.987,2.205-2.205s-0.986-2.205-2.205-2.205
		c-1.218,0-2.205,0.987-2.205,2.205S379.659,418.709,380.877,418.709"/>
	<path clip-path="url(#SVGID_2_)" d="M394.357,430.607c1.219,0,2.205-0.987,2.205-2.205s-0.986-2.205-2.205-2.205
		c-1.218,0-2.205,0.987-2.205,2.205S393.14,430.607,394.357,430.607"/>
	<path clip-path="url(#SVGID_2_)" d="M355.747,394.533c1.218,0,2.205-0.987,2.205-2.205s-0.987-2.205-2.205-2.205
		s-2.204,0.987-2.204,2.205S354.529,394.533,355.747,394.533"/>
	<path clip-path="url(#SVGID_2_)" d="M342.282,434.495c1.218,0,2.205-0.986,2.205-2.204c0-1.219-0.987-2.205-2.205-2.205
		s-2.204,0.986-2.204,2.205C340.078,433.509,341.064,434.495,342.282,434.495"/>
	<path clip-path="url(#SVGID_2_)" d="M307.021,377.828c1.218,0,2.205-0.987,2.205-2.205s-0.987-2.205-2.205-2.205
		s-2.205,0.987-2.205,2.205S305.803,377.828,307.021,377.828"/>
	<path clip-path="url(#SVGID_2_)" d="M353.283,333.023c1.218,0,2.205-0.987,2.205-2.205s-0.987-2.205-2.205-2.205
		c-1.219,0-2.205,0.987-2.205,2.205S352.064,333.023,353.283,333.023"/>
	<path clip-path="url(#SVGID_2_)" d="M313.559,390.068c1.217,0,2.205-0.986,2.205-2.205c0-1.218-0.988-2.205-2.205-2.205
		c-1.219,0-2.205,0.987-2.205,2.205C311.354,389.082,312.34,390.068,313.559,390.068"/>
	<path clip-path="url(#SVGID_2_)" d="M428.811,378.393c1.218,0,2.205-0.987,2.205-2.205s-0.987-2.205-2.205-2.205
		c-1.219,0-2.205,0.987-2.205,2.205S427.592,378.393,428.811,378.393"/>
	<path clip-path="url(#SVGID_2_)" d="M438.603,369.542c1.218,0,2.205-0.987,2.205-2.205s-0.987-2.205-2.205-2.205
		s-2.205,0.987-2.205,2.205S437.385,369.542,438.603,369.542"/>
	<path clip-path="url(#SVGID_2_)" d="M417.014,361.82c1.217,0,2.205-0.986,2.205-2.205c0-1.218-0.988-2.205-2.205-2.205
		c-1.219,0-2.205,0.987-2.205,2.205C414.809,360.834,415.795,361.82,417.014,361.82"/>
	<path clip-path="url(#SVGID_2_)" d="M481.715,384.822c1.218,0,2.205-0.986,2.205-2.205c0-1.218-0.987-2.205-2.205-2.205
		c-1.219,0-2.205,0.987-2.205,2.205C479.51,383.836,480.496,384.822,481.715,384.822"/>
	<path clip-path="url(#SVGID_2_)" d="M486.625,411.537c1.217,0,2.205-0.987,2.205-2.205s-0.988-2.205-2.205-2.205
		c-1.219,0-2.205,0.987-2.205,2.205S485.406,411.537,486.625,411.537"/>
	<path clip-path="url(#SVGID_2_)" d="M454.422,423.294c1.218,0,2.205-0.987,2.205-2.205s-0.987-2.205-2.205-2.205
		c-1.219,0-2.205,0.987-2.205,2.205S453.203,423.294,454.422,423.294"/>
	<path clip-path="url(#SVGID_2_)" d="M413.367,428.109c1.219,0,2.205-0.987,2.205-2.205s-0.986-2.205-2.205-2.205
		c-1.217,0-2.205,0.987-2.205,2.205S412.15,428.109,413.367,428.109"/>
	<path clip-path="url(#SVGID_2_)" d="M527.113,374.626c1.218,0,2.205-0.986,2.205-2.205c0-1.218-0.987-2.205-2.205-2.205
		s-2.205,0.987-2.205,2.205C524.908,373.64,525.896,374.626,527.113,374.626"/>
	<path clip-path="url(#SVGID_2_)" d="M505.08,355.982c1.218,0,2.205-0.987,2.205-2.205s-0.987-2.205-2.205-2.205
		c-1.219,0-2.205,0.987-2.205,2.205S503.861,355.982,505.08,355.982"/>
	<path clip-path="url(#SVGID_2_)" d="M535.023,339.976c1.217,0,2.204-0.987,2.204-2.205s-0.987-2.205-2.204-2.205
		c-1.219,0-2.205,0.987-2.205,2.205S533.805,339.976,535.023,339.976"/>
	<path clip-path="url(#SVGID_2_)" d="M538.723,326.416c1.217,0,2.204-0.986,2.204-2.205c0-1.218-0.987-2.205-2.204-2.205
		c-1.219,0-2.205,0.987-2.205,2.205C536.518,325.43,537.504,326.416,538.723,326.416"/>
	<path clip-path="url(#SVGID_2_)" d="M543.497,356.28c1.218,0,2.205-0.986,2.205-2.204c0-1.219-0.987-2.205-2.205-2.205
		s-2.205,0.986-2.205,2.205C541.292,355.294,542.279,356.28,543.497,356.28"/>
	<path clip-path="url(#SVGID_2_)" d="M513.727,415.702c1.217,0,2.205-0.987,2.205-2.205s-0.988-2.205-2.205-2.205
		c-1.219,0-2.205,0.987-2.205,2.205S512.508,415.702,513.727,415.702"/>
	<path clip-path="url(#SVGID_2_)" d="M471.339,429.527c1.218,0,2.205-0.987,2.205-2.205s-0.987-2.205-2.205-2.205
		s-2.204,0.987-2.204,2.205S470.121,429.527,471.339,429.527"/>
	<path clip-path="url(#SVGID_2_)" d="M452.954,385.172c1.218,0,2.204-0.986,2.204-2.204c0-1.219-0.986-2.205-2.204-2.205
		s-2.205,0.986-2.205,2.205C450.749,384.186,451.736,385.172,452.954,385.172"/>
	<path clip-path="url(#SVGID_2_)" d="M472.899,361.915c1.218,0,2.204-0.987,2.204-2.205s-0.986-2.205-2.204-2.205
		s-2.205,0.987-2.205,2.205S471.682,361.915,472.899,361.915"/>
	<path clip-path="url(#SVGID_2_)" d="M502.781,368.035c1.218,0,2.205-0.987,2.205-2.205s-0.987-2.205-2.205-2.205
		c-1.219,0-2.205,0.987-2.205,2.205S501.562,368.035,502.781,368.035"/>
	<path clip-path="url(#SVGID_2_)" d="M474.848,333.924c1.219,0,2.205-0.987,2.205-2.205s-0.986-2.205-2.205-2.205
		c-1.217,0-2.205,0.987-2.205,2.205S473.631,333.924,474.848,333.924"/>
	<path clip-path="url(#SVGID_2_)" d="M515.978,336.861c1.218,0,2.204-0.986,2.204-2.204c0-1.219-0.986-2.205-2.204-2.205
		s-2.205,0.986-2.205,2.205C513.772,335.875,514.76,336.861,515.978,336.861"/>
	<path clip-path="url(#SVGID_2_)" d="M506.508,316.95c1.219,0,2.205-0.987,2.205-2.205s-0.986-2.205-2.205-2.205
		c-1.218,0-2.205,0.987-2.205,2.205S505.29,316.95,506.508,316.95"/>
	<path clip-path="url(#SVGID_2_)" d="M374.8,402.677c1.218,0,2.205-0.987,2.205-2.205s-0.987-2.205-2.205-2.205
		s-2.205,0.987-2.205,2.205S373.582,402.677,374.8,402.677"/>
	<path clip-path="url(#SVGID_2_)" d="M327.551,418.223c1.217,0,2.205-0.987,2.205-2.205s-0.988-2.205-2.205-2.205
		c-1.219,0-2.205,0.987-2.205,2.205S326.332,418.223,327.551,418.223"/>
	<path clip-path="url(#SVGID_2_)" d="M292.467,391.198c1.217,0,2.204-0.986,2.204-2.205c0-1.218-0.987-2.205-2.204-2.205
		c-1.219,0-2.205,0.987-2.205,2.205C290.262,390.212,291.248,391.198,292.467,391.198"/>
	<path clip-path="url(#SVGID_2_)" d="M279.443,377.556c1.219,0,2.205-0.987,2.205-2.205s-0.986-2.205-2.205-2.205
		c-1.218,0-2.205,0.987-2.205,2.205S278.226,377.556,279.443,377.556"/>
	<path clip-path="url(#SVGID_2_)" d="M295.966,360.69c1.218,0,2.205-0.987,2.205-2.205s-0.987-2.205-2.205-2.205
		s-2.205,0.987-2.205,2.205S294.748,360.69,295.966,360.69"/>
	<path clip-path="url(#SVGID_2_)" d="M340.281,358.242c1.217,0,2.205-0.986,2.205-2.205c0-1.218-0.988-2.205-2.205-2.205
		c-1.219,0-2.205,0.987-2.205,2.205C338.076,357.256,339.062,358.242,340.281,358.242"/>
	<path clip-path="url(#SVGID_2_)" d="M320.205,349.185c1.219,0,2.205-0.987,2.205-2.205c0-1.219-0.986-2.205-2.205-2.205
		c-1.217,0-2.205,0.986-2.205,2.205C318,348.197,318.988,349.185,320.205,349.185"/>
	<path clip-path="url(#SVGID_2_)" d="M309.431,406.118c1.218,0,2.205-0.987,2.205-2.205c0-1.219-0.987-2.205-2.205-2.205
		s-2.205,0.986-2.205,2.205C307.226,405.131,308.213,406.118,309.431,406.118"/>
	<path clip-path="url(#SVGID_2_)" d="M295.207,410.141c1.219,0,2.205-0.987,2.205-2.205s-0.986-2.205-2.205-2.205
		c-1.218,0-2.205,0.987-2.205,2.205S293.989,410.141,295.207,410.141"/>
</g>
</svg>
