<?xml version="1.0" encoding="utf-8"?>
<!-- Generator: Adobe Illustrator 14.0.0, SVG Export Plug-In . SVG Version: 6.00 Build 43363)  -->
<!DOCTYPE svg PUBLIC "-//W3C//DTD SVG 1.1//EN" "http://www.w3.org/Graphics/SVG/1.1/DTD/svg11.dtd">
<svg version="1.1" id="Layer_1" xmlns="http://www.w3.org/2000/svg" xmlns:xlink="http://www.w3.org/1999/xlink" x="0px" y="0px"
	 width="792px" height="612px" viewBox="0 0 792 612" enable-background="new 0 0 792 612" xml:space="preserve">
<g>
	<defs>
		<rect id="SVGID_1_" x="179" y="52.455" width="464.234" height="520.545"/>
	</defs>
	<clipPath id="SVGID_2_">
		<use xlink:href="#SVGID_1_"  overflow="visible"/>
	</clipPath>
	<path clip-path="url(#SVGID_2_)" d="M275.748,398.093c1.285,9.559,3.188,18.315,5.645,25.49c0.668,0.473,1.341,0.95,1.99,1.404
		C285.532,413.665,282.016,405.105,275.748,398.093 M274.385,384.637c0.193,2.749,0.431,5.467,0.718,8.136
		c0.725,0.714,1.424,1.448,2.065,2.225c1.51-1.06-0.051-2.747-0.511-4.209c3.392,3.74,8.353,9.726,14.677,15.295
		C292.467,394.114,284.387,388.644,274.385,384.637 M273.814,367.084c-0.012,2.642,0.016,5.282,0.091,7.912
		c4.882,1.475,9.841,2.562,14.89,3.212C283.725,374.017,278.688,370.574,273.814,367.084 M274.028,358.157
		c-0.087,2.017-0.153,4.041-0.188,6.07c3.295,1.608,6.709,3.209,9.724,6.078C285.164,362.574,280.037,360.384,274.028,358.157
		 M275.414,341.566c-0.326,2.573-0.604,5.189-0.828,7.843c0.928,0.909,2.015,1.61,3.254,1.947
		C278.121,348.316,277.106,345.011,275.414,341.566 M543.531,209.487c3.424,1.386,6.977,2.343,9.828,3.381
		C550.114,211.152,546.809,209.983,543.531,209.487 M631.031,397.225c-4.534-6.851-9.069-13.702-13.603-20.552
		c2.73-11.318,3.362-30.308,4.855-37.317C628.011,359.215,634.625,379.259,631.031,397.225 M613.243,370.349
		c-3.143-4.747-6.28-9.488-9.418-14.229c10.367-8.396-2.568-28.771,10.623-32.042C617.558,340.214,619.01,356.015,613.243,370.349
		 M607.612,324.058c-2.809-2.189,0.29-9.632-5.233-7.906c4.053,4.473,1.841,7.672,3.118,11.581
		c-5.433,4.299-10.453,6.553-15.274,7.835c-1.547-4.419-2.5-8.716-6.789-13.694c9.116-6.353,8.83-14.617,17.947-20.972
		C604.778,308.889,619.252,319.127,607.612,324.058 M601.96,284.602c-12.564-14.412-10.064-25.758-11.441-37.895
		C600.494,260.59,606.81,273.732,601.96,284.602 M587.267,276.141c-11.35-16-31.259-25.611-37.716-43.243
		C561.557,245.668,581.029,257.424,587.267,276.141 M585.729,263.518c-13.116-18.895-42.096-30.065-45.037-54.307
		c0.941,0.026,1.891,0.133,2.84,0.276c-6.07-2.457-11.72-6.29-12.259-14.506c6.664,7.735,21.806,9.192,23.603,18.481
		c-0.477-0.203-0.984-0.4-1.516-0.595C569.922,221.627,584.862,244.498,585.729,263.518 M529.672,202.863
		c-7.367-4.287-22.156-7.472-23.066-21.111C513.358,189.041,528.9,188.531,529.672,202.863 M519.161,200.723
		c5.884,4.879,19.597,6.533,19.392,18.996C533.166,212.397,519.744,209.305,519.161,200.723 M532.25,217.068
		c5.24,7.396,14.963,10.109,12.557,18.971C540.84,232.799,531.123,223.073,532.25,217.068 M551.019,266.029
		c0.59-8.087-9.022-18.25-5.698-25.785C551.352,248.807,553.83,263.821,551.019,266.029 M544.219,413.76
		c11.305,1.86,12.619,11.5,22.017,19.525c-2.688-4.649-8.539-9.944-4.161-13.157c10.702,11.991,10.797,26.768,17.764,33.71
		c-10.918,2.972-11.607-21.837-25.666-28.479c4.354,5.907,7.766,11.614,8.883,16.86C591.76,486.355,542.975,420.56,544.219,413.76
		 M556.148,462.7c3.752,4.501,9.17,16.335,2.583,14.202C561.43,472.896,554.108,466.844,556.148,462.7 M579.93,426.497
		c-1.173-4.616-11.254-9.259-5.233-7.905c2.435,2.265,1.822-1.679,4.744-3.141C581.357,419.492,582.328,423.336,579.93,426.497
		 M591.961,286.673c2.094,3.161,4.187,6.323,6.279,9.484c-5.965,6.084-6.869,13.195-17.41,18.347
		C581.828,304.676,585.974,295.488,591.961,286.673 M577.086,332.893c3.31,4.323,5.908,8.5,0.489,11.046
		C575.662,339.903,574.688,336.054,577.086,332.893 M555.808,249.219c9.885,11.923,20.452,20.502,30.39,32.177
		c0.803,8.829-4.94,16.322-11.645,23.623C560.975,284.931,553.325,266.043,555.808,249.219 M562.461,303.928
		c-2.752-4.209-7.041-8.73-3.115-11.578C562.096,296.556,566.383,301.076,562.461,303.928 M558.786,301.813
		c4.074,6.3,10.94,13.166,4.675,17.364C558.738,312.747,554.146,306.338,558.786,301.813 M571.051,409.645
		c-7.055-5.802-12.451-26.422-0.959-28.926c2.547,8.3,11.304,25.058,4.121,26.833C574.34,400.465,574.137,406.695,571.051,409.645
		 M564.906,359.146c4.639,14.048,7.873,21.014-4.812,23.643C561.063,374.779,554.283,365.192,564.906,359.146 M583.161,403.896
		c-1.455-9.416-9.198-20.11-5.164-28.41c-5.378-2.43-7.392-13.635-8.346-19.479c4.919,6.929,8.785,13.644,8.346,19.479
		C581.043,380.19,595.929,397.971,583.161,403.896 M585.765,411.266c1.487,1.67,3.636,0.063,5.791-1.558
		c3.37,7.53,6.176,14.942,5.182,21.575C587.146,431.703,581.61,418.917,585.765,411.266 M592.314,338.729
		c4.216-2.791,8.433-5.582,12.65-8.373c2.788,8.778,2.907,17.008-2.188,24.181C597.37,347.625,594.812,346.729,592.314,338.729
		 M603.802,362.953c4.074,6.305,10.942,13.174,4.677,17.367C605.312,374.202,603.593,368.384,603.802,362.953 M616.357,381.924
		c4.883,7.378,9.767,14.756,14.65,22.135c-0.84,7.124-3.059,13.967-6.903,20.479C616.908,409.395,603.121,392.913,616.357,381.924
		 M612.597,407.151c5.476,6.588,7.037,12.372,9.926,18.434c-1.828,3.736-6.131,6.965-8.969,10.488
		C612.462,426.277,610.983,416.397,612.597,407.151 M330.213,255.307c11.248-10.492,9.571-30.866-2.488-41.549
		c11.793,17.449,8.15,31.757-2.251,44.687c1.227-18.901,1.17-38.063-4.541-58.378c3.112,2.654,4.921,11.678,8.907,10.02
		c-4.862-9.728-11.369-11.354-16.23-21.082C360.32,166.17,355.896,248.998,330.213,255.307 M316.987,279.978
		c3.526-5.258,4.614-18.152,15.833-17.302C324.778,267.019,324.141,280.002,316.987,279.978 M264.238,330.808
		c-6.066-0.291-9.322-6.915-5.744-12.115C259.723,322.589,267.324,327.784,264.238,330.808 M247.612,271.334
		c-0.853,6.211-0.931,12.578-11.626,16.789C231.053,281.593,239.196,270.605,247.612,271.334 M229.076,255.33
		c-15.923,7.592-28.289,19.872-34.628,27.061c-0.445,0.72-0.877,1.441-1.283,2.17c7.151-7.088,16.287-13.711,21.617-15.752
		c-1.474,15.422-13.603,31.001-14.513,44.155c-1.464,21.17,4.841,27.276,4.841,27.276s-9.857-20.522,6.138-44.837
		c5.36,7.064,3.554,19.808-2.693,19.97c1.66-6.793,6.655-18.165,4.923-19.28l-2.138-1.921c0,0-5.5,16.884-5.407,26.283
		c0.022,2.265,1.872,20.044,2.51,29.09c-23.11-22.151-33.036-50.561-2.86-72.465c-1.195,1.185-8.404,4.435-15.008,11.727
		c-0.155,0.174,2.85-3.888,6.015-7.477c7.782-12.601,19.217-22.912,37.25-32.111C245.09,244.133,233.494,252.17,229.076,255.33
		 M217.506,311.72c1.87,4.238,5.164,1.526,6.814,6.858c-6.403,3.715-5.953,8.825-9.508,13.111
		C211.143,324.104,213.641,317.774,217.506,311.72 M226.697,394.301c14.462,20.815,31.252,30.165,48.244,38.549
		C255.895,438.385,222.32,420.561,226.697,394.301 M221.756,297.541c2.121-2.875,2.688-12.99,8.978-10.488
		C228.832,289.964,229.019,300.237,221.756,297.541 M234.338,309.673c-3.256,5.634-11.688-7.106-5.23-7.902
		C230.851,304.404,232.594,307.038,234.338,309.673 M229.991,351.199c-2.891-8.799,1.444-16.127,7.441-23.113
		C239.979,336.812,232.683,343.538,229.991,351.199 M536.58,498.391c-5.228,1.018-11.26,6.001-15.793,3.626
		C526.207,500.049,532.237,495.066,536.58,498.391 M499.215,507.2c-9.107,9.555-16.474,19.452-15.879,30.975
		c-6.072-1.531-11.724-5.127-16.248-14.251C469.342,510.851,488.92,503.442,499.215,507.2 M618.145,319.361
		c21.883-25.765,26.034-72.925-14.935-94.695c31.412,20.834,38.627,66.221,12.842,91.534c-3.093-7.014-3.122-13.405-9.396-21.065
		c17.696-19.072,9.777-52.092-15.533-71.562c-1.41-5.213,6.021,0.808,7.879,1.603c1.086-3.613-9.492-6.731-13.646-6.879
		c-11.286-12.871-23.611-23.387-38.272-33.778c-12.963-9.192-12.185-5.606-24.955-14.022c-6.429-7.962,62.653,24.28-13.822-15.107
		c-6.428-12.387-148.579-59.704-193.979-23.696c-8.426,6.683-9.579,15.799-18.483,23.599c-13.945,12.223-26.215,25.58-16.363,19.924
		c-0.16,11.869,9.846,27.019,5.294,36.166c-2.358,4.746-7.07,8.084-12.382,11.543c-1.023,4.736,0.059,1.795-1.907,7.338
		c-115.393,43.271-103.943,87.239-61.528,123.496c-0.559,17.212-4.515,33.737,2.978,52.59c8.291,14.679,18.639,23.242,1.582-1.047
		c-1.73-11.293-6.318-23.174-1.467-33.133c13.553,19.624,9.462,40.74,25.579,55.823c14.762,13.818,35.957,4.835,52.008,13.319
		c-22.23,1.704-43.254-2.555-61.98-18.087c8.331,15.229,36.473,18.933,42.379,19.731c8.727,1.181,16.297,0.551,22.811-1.582
		c-4.578-2.542-8.432-8.973-11.451-17.79c-15.773-11.161-36.448-27.519-44.631-51.855c12.293,8.072,29.084,15.283,38.986,26.365
		c-0.234-1.75-0.453-3.522-0.646-5.32c-9.201-9.062-24.386-13.388-28.88-20.49c6.627,5.89,18.324,8.413,28.162,12.354
		c-0.223-3.181-0.387-6.399-0.479-9.641c-14.022-4.233-27.385-11.718-40.239-21.684c2.455-7.711,6.1-15.174,10.064-22.572
		c7.887,19.507,18.518,28.062,30.084,36.344c0.004-0.951,0.01-1.904,0.025-2.856c-5.695-2.781-11.037-5.591-13.342-15.032
		c2.836,5.203,8.492,7.095,13.53,8.962c0.128-2.942,0.312-5.865,0.558-8.748c-3.424-3.353-4.56-9.719-1.953-12.794
		c1.047,1.675,1.982,3.327,2.781,4.951c4.07-32.132,16.103-56.853,38.366-45.826c5.162-10.753,17.823-33.212,30.083-33.552
		c1.165-24.388,17.208-45.748,1.296-73.611c11.543,6.015,21.968,17.542,33.038,25.878c-2.242-0.182-4.294-1.289-6.299-2.649
		c-0.74,4.088,10.32,7.206,14.693,8.462c-0.469,4.463-4.357,8.23-5.299,12.6c5.268,3.137,3.594-6.406,8.437-7.859
		c16.142,1.75,34.749,18.347,47.271,16.455c0.952,5.143-14.414,20.088-25.828,19.371c5.476-0.017,10.287,3.224,15.763,3.207
		c3.377-6.651,11.933-13.711,18.438-9.929c3.772-2.839-3.084-5.659-4.188-6.325c17.885-0.058,39.801,14.456,48.779,35.919
		c-12.309-11.224-24.61-22.48-37.224-32.198c7.406,14.326,33.854,24.46,39.808,46.403c-12.305-11.239-23.453-28.176-36.156-37.45
		c-6.91-4.248,16.854,19.648,21.994,26.361c18.888,24.65,17.746,44.999,5.052,62.587c5.978,1.127,7.098-10.346,11.091-14.159
		c9.396,30.641,20.176,61.559,29.137,92.113c1.426,3.117,3.642,2.252,2.631,0.534c-3.373-7.527-6.18-14.939-5.188-21.575
		c16.905,12.635,19.487,44.619,34.485,65.839c-3.691,2.377-34.995-53.185-24.088-29.523c3.449,12.102,15.941,26.043,23.527,38.986
		c-17.693,13.017-31.855,8.644-49.494,21.392c-27.348-14.202-63.345,35.914-21.156,36.741c2.016,19.471,21.672,32.021,35.646,33.243
		c-6.553-1.869-30.356-16.66-29.853-34.801c2.634-1.744,5.269-3.486,7.906-5.232c-1.483-1.684-3.771,0.57-5.793,1.557
		c0.401-36.075,42.413-19.996,65.883-48.158c3.344,5.365,6.494,13.786,9.91,25.273c0.928-8.809-0.011-11.399-5.166-28.414
		c27.425-21.182,23.715-28.654,23.244-43.834c-1.099-2.96-0.921-5.891,1.116-8.663c-0.891,2.41-1.219,5.356-1.116,8.663
		c4.703,12.673,19.693,12.536,11.181,7.3c15.823,0,31.362-24.03,37.32-33.681c3.141,5.611,8.249,23.593,8.249,23.593
		c1.222-10.257-1.136-19.507-5.088-25.687C642.312,382.645,635.082,351.989,618.145,319.361 M291.773,430.803
		c5.32-9.823,2.843-23.084-7.79-28.947C282.31,411.122,284.818,423.718,291.773,430.803"/>
	<path clip-path="url(#SVGID_2_)" fill="#FEDCBF" d="M425.377,339.517l-13.359,23.761l-21.586-3.225l-22.711,2.925l-11.42-24.022
		l19.125-7.524l15.451,6.347l13.477-6.417L425.377,339.517z M497.127,232.729l-11.625-12.75l-3.875-33.625l-10-9.5l-7-8.5l-13.5-8
		l-44.75-4.75l-24.75-1.5l-60.75,31c0,0-22.25,16.75-27.25,22.774s-1,48.226-1,48.226l8.5,27.749l25.75,55.2l-2.976,25.8
		l3.726,12.25l31.75,0.25l18.5,7.5h19.75l17.75-5.75l8-6.75l40.5,0.25l-1.5-56.25l8.25-33.5l9.875-14l2.625,15.976l4,5.524l6.5-3.95
		l5.5-9.8l-1.5-9.749l-1.5-11.25l1.25-19.25L497.127,232.729z"/>
	<path clip-path="url(#SVGID_2_)" fill="#AD7D7A" d="M469.127,172.133c-11.926-19.432,4.851-37.553-87.885-17.51
		c-12.222,2.641-71.74,32.537-87.23,51.922c-3.635,7.961-2.135,18.692-2.135,18.692l4.903,45.865l29.972,67.673l-2.972,31.327
		l5.192,7.096l25.615-1.038l15.576,7.27l31.588,1.385l12.721-5.192c0,0-26.491,4.275-36.875-0.917
		c-0.998-2.736-1.078-3.277-1.801-7.103c13.58-9.525,31.937-8.763,31.937-8.763l-10.222-1.218l-11.885-1.385l-16.557,2.553
		l-13.693-23.062l20.326-8.625c0,0,8.526-13.101,8.963-13.875c2.18,1.969,5.576,2.164,5.576,2.164l-3.115-14.193l-5.295-4.315
		l-4.744-76.338c0,0,0.223,0.328-2.258-0.235c-1.5-2.886-6.015-24.294-12.938-25.679s-21.531-7.662-24.676-10.778
		C381.377,163.133,441.321,156.217,469.127,172.133"/>
	<path clip-path="url(#SVGID_2_)" fill="#754D4E" d="M367.68,200.709c-11.25-0.321-35.438-5.154-36.629-0.643
		c-2.408,9.103-12.709-2.893-12.709-2.893l-8.037,6.947c0,0-2.979,14.632-4.871,28.386c1.029-7.476-5.308,10.31-7.985,39.56
		c-0.964-8.357-5.464-64.285-5.464-64.285l31.449-23.391L367.68,200.709z"/>
</g>
<polygon fill="#D2232A" points="356.568,339.927 375.426,331.431 390.876,337.777 404.354,331.36 425.376,339.517 412.018,363.277 
	390.432,360.053 366.928,361.343 "/>
<g>
	<defs>
		<rect id="SVGID_3_" x="179" y="52.455" width="464.234" height="520.545"/>
	</defs>
	<clipPath id="SVGID_4_">
		<use xlink:href="#SVGID_3_"  overflow="visible"/>
	</clipPath>
	<path clip-path="url(#SVGID_4_)" fill="#6A0000" d="M423.535,339.615c0,0-6.545,3.845-13.121,4.274
		c-4.396,0.287-13.662-1.35-16.037-1.1s-2.9,1.277-4.125,1.875c-3.44-5.343-19.446-2.204-9.178-12.206
		c-4.5-1.125-24.416,7.081-24.416,7.081s4.896,13.226,11.76,20.681c3.352,3.643,12.149-1.38,18.111-1.38
		c-11.925-1.8-5.568-7.707,4.084-7.525c3.883-1.188,10.182,0,24.413-4.22C425.883,342.428,423.535,339.615,423.535,339.615"/>
	<path clip-path="url(#SVGID_4_)" fill="#754D4E" d="M371.627,311.353c-2.25-3.75-3.705-9.375-1.455-9.875
		c4.351-0.967,10.518,8.656,14.404,10.875c2.76,1.575,4.535,1.781,4.535,1.781l1.016,5.469c0,0-1.642-0.125-4.453-2.328
		c-1.172-0.983-0.609-0.422-0.609-0.422s-0.295,0.534-1.369,1.894C380.207,317.059,377.877,316.353,371.627,311.353"/>
	<path clip-path="url(#SVGID_4_)" fill="#754D4E" d="M345.502,342.237c-2.256-2.494,1.737-8.947,2.787-8.347
		c0.92,1.938,3.088,3.587,6.838,5.212C348.098,338.949,346.451,343.287,345.502,342.237"/>
	<path clip-path="url(#SVGID_4_)" fill="#D6B1A5" d="M434.455,343.739c2.256-2.494-0.896-10.249-1.947-9.648
		c-0.919,1.938-3.295,3.387-7.045,5.012C432.492,338.948,433.505,344.789,434.455,343.739"/>
	<path clip-path="url(#SVGID_4_)" fill="#D6B1A5" d="M409.627,311.244c2.25-3.75,3.094-8.845,0.844-9.345
		c-4.219,0.211-12.094,13.078-21.319,12.178c0.056,0.597,0.899,5.525,0.899,5.525s-3.998-1.577-5.584-2.094
		c-0.367,0.517-0.321,0.394-0.771,1.238C395.053,325.153,403.377,316.244,409.627,311.244"/>
	<path clip-path="url(#SVGID_4_)" fill="#754D4E" d="M365.627,222.853c0,0,11.149,1.675,14.524-0.913
		c0.338,4.051,1.86,72.759,1.091,77.374c-5.824-43.782-13.615-61.346-13.615-65.461c-5.078,8.347-15.115,15.961-15.115,15.961
		L365.627,222.853z"/>
	<path clip-path="url(#SVGID_4_)" fill="#D6B1A5" d="M410.838,223.334c0,0-5.8,1.319-11.843-1.449
		c-2.433-0.629-5.119-0.563-5.119-0.563s6.073,2.774,6.095,5.175c0.088,9.602,0.295,34.344,0.155,41.682
		c3.5-14.325,6.404-26.902,9-29.325c5.5-5.5,19.712,9.231,19.712,9.231L410.838,223.334z"/>
	<path clip-path="url(#SVGID_4_)" fill="#EC008C" d="M496.512,141.566c-6.231-10.829-27.692-41.29-27.692-41.29L436.973,70.16
		l-25.738-12.807l-16.146-2.077l-24.23,2.077l-23.538,9.692l-23.193,17.308l-24.229,32.884l-11.077,24.329l-16.271,30.71
		l-9.023,10.514l20.476,35.438l-6.375,26.343l-9.229,36.496L238.28,401.43l5.192,7.961l26.653,19.039l27.693,16.615l8.307,1.731
		l60.841-26.071l-20.625-16.875l-20.777-26.493l1.14-36.132l-37.885-97.102c0,0,0.346-27.965,5.192-37.608
		c4.846-9.642,74.076-49.104,74.076-49.104l65.077-19.385l42.577-1.384L496.512,141.566z"/>
	<path clip-path="url(#SVGID_4_)" fill="#A1238F" d="M478.857,128.66c-57.462-11.423-79.27-7.961-113.885-7.269
		c-10.529,0.21-34.299-28.269-32.885-44.164c-20.797,14.51-44.654,77.129-68.711,103.726c13.733,29.564,16.069,38.838,16.069,38.838
		l-41.944,166.754l1.125,16.27l3.75,4.413l57.172,38.25h6.203l15.375-2.509l-30-24.116c0,0-5.813-6.146-4.385-14.625
		c7.452-44.229,1.1-174.772,6.26-196.99c5.855-12.114,98.625-60.26,98.625-60.26S476.262,129.41,478.857,128.66"/>
	<path clip-path="url(#SVGID_4_)" fill="#771270" d="M282.662,196.854c22.5-30.537,20.571-49.801,54.964-78.429
		c-28.284,15.429-42.131,38.567-55.308,53.826c-1.436-6.316-1.641-6.312-4.297-9.265c-3-4.5-9.995,14.039-15.207,16.166
		c5.449-2.225,19.5,39.264,21.75,42.264C283.7,220.264,282.452,194.49,282.662,196.854"/>
	<path clip-path="url(#SVGID_4_)" fill="#771270" d="M280.412,221.775c26.314-39.473,132.664-88.373,206.614-91.973
		c-42.3-13.35-156.36,19.928-209.31,77.527C277.717,211.83,280.412,212.877,280.412,221.775"/>
	<path clip-path="url(#SVGID_4_)" fill="#771270" d="M280.711,209.334c31.846-37.36,61.775-61.856,104.81-80.122
		c-31.017,8.25-82.806,38.039-104.142,64.692C281.379,198.404,280.067,202.102,280.711,209.334"/>
	<path clip-path="url(#SVGID_4_)" fill="#771270" d="M278.768,407.028c6-55.5,12.25-129.75,12.794-199.698
		c-6.056,5.036-10.829,3.086-10.88,9.717C280.218,276.941,279.768,378.028,278.768,407.028"/>
	<path clip-path="url(#SVGID_4_)" fill="#D6B1A5" d="M493.752,227.979c-10.349,17.227-5.004,32.086-3.599,32.18
		c-1.245-14.484,4.257-21.58,5.761-23.305c2.254,0.289-1.213,17.621,0.825,26.094c1.759,8.086-4.088,37.265-12.987-0.344
		c-0.931,4.562-1.25,17.249-1.25,17.249l3.961,10.5l6.976-3.274c0,0,3.599-5.978,5.313-11.362
		c1.713-5.386-1.192-12.409-1.379-21.034c-0.188-8.625,3.467-19.414,1.592-23.539S495.267,225.456,493.752,227.979"/>
	<path clip-path="url(#SVGID_4_)" fill="#F06EAA" d="M415.943,337.132c-16.701,4.992-16.545,2.765-25.441,5.296
		c-3.609,1.027,0.225-3.365,0.225-3.365l14.641-5.392C405.367,333.671,413.607,335.142,415.943,337.132"/>
	<path clip-path="url(#SVGID_4_)" fill="#F06EAA" d="M416.684,347.91c-6.68,8.985-25.822,3.506-25.822,3.506s4.883-2.812,8.04-3.954
		C402.659,346.104,410.639,349.628,416.684,347.91"/>
	<path clip-path="url(#SVGID_4_)" fill="#D6B1A5" d="M412.396,202.392c9.625-5.75,49.377-27.476,49.377-27.476l16.412,5.789
		c0,0-0.367,0.305,0.691,3.397c1.654,8.719-3.25,36-3.25,36l-11.719-20.867c0,0-4.219-1.671-14.625,1.06
		c-10.406,2.729-34.516,26.358-48.766,22.733C402.843,213.028,407.005,204.903,412.396,202.392"/>
	<path clip-path="url(#SVGID_4_)" fill="#754D4E" d="M368.309,225.693l-3.232,5.135l-3.375,5.502l-6.975,6.647l-5.176,2.558
		l-9.899,3.272h-8.161l-10.841-1.556l-7.548-4.725l-4.051-5.584l-2.311-9.49l-0.205-5.851h-2.791c0,0-7.617,30.5,22.5,34.015
		C361.246,259.703,368.309,225.693,368.309,225.693"/>
	<path clip-path="url(#SVGID_4_)" fill="#D6B1A5" d="M411.426,225.693l3.232,5.135l3.375,5.502l6.975,6.647l5.176,2.558l9.9,3.272
		h8.16l10.842-1.556l7.547-4.725l4.051-5.584l2.311-9.49l0.205-5.851l3.662,0.25c0,0,3.371,31.022-20.646,33.5
		C421.16,258.969,411.426,225.693,411.426,225.693"/>
	<path clip-path="url(#SVGID_4_)" fill="#754D4E" d="M306.127,284.281l17.035,18.322l7.715,13.948l17.679,48.729
		c0,0,51.297,33.451,49.284,33.174c-6.524-0.899-38,24.5-66.5-9c-12.246-14.396-3.838-47.252-3.7-51.46
		c-7.312-10.784-14.738-23.437-18.942-35.392C305.483,295.21,306.127,284.281,306.127,284.281"/>
	<path clip-path="url(#SVGID_4_)" fill="#D6B1A5" d="M467.58,284.281c0,0-12.055,6.846-17.036,18.322
		c-9.868,11.023-25.918,67-25.918,67s-12.228,26.224-10.142,30.621c3.705,7.817,44.32-17.119,50.24-19.038
		c1.25-8.5-5.75-35.404,0-44.654c7.771-12.501-4.653-19.889,0.285-33.929C468.223,295.21,467.58,284.281,467.58,284.281"/>
	<path clip-path="url(#SVGID_4_)" d="M390.719,319.853c-0.039-0.272-0.013-0.323,0-0.883c8.787-0.098,14.996-17.153,20.357-17.211
		c3.167,0.094,1.762,5.414-1.473,9.563C407.273,302.804,400.113,320.089,390.719,319.853"/>
	<path clip-path="url(#SVGID_4_)" d="M414.346,295.165c1.756,0.37,3.162,0.398,4.305,1.538c4.976,4.962-4.648,16.126-8.865,17.724
		c5.084-1.085,18.376-14.047,11.855-19.909C420.622,293.602,415.074,294.318,414.346,295.165"/>
	<path clip-path="url(#SVGID_4_)" d="M390.689,334.622c-3.178-0.021-9.986-4.627-12.813-5.125
		c-6.907-0.916-17.524,11.964-23.829,8.333c-2.541-1.381-3.607-1.907-5.799-3.977c-2.09,7.511-0.105,3.942,3.723,4.469
		c8.715,1.195,8.433,26.658,21.371,25.758c8.926-1.353,12.055-1.193,17.348-1.193v-5.562c-13.729-0.033-19.838,4.638-23.063,0.31
		c-2.864-3.329-7.769-12.805-10.425-16.894c12.1,11.882,15.3,0.805,33.488,7.728v-2.794c-9.738-5.972-15.42,5.6-32.295-5.78
		c8.707-3.04,15.731-6.79,17.981-5.54c7.716,3.102,11.5,4.769,14.25,4.769L390.689,334.622z"/>
	<path clip-path="url(#SVGID_4_)" d="M390.497,334.622c3.179-0.021,9.985-4.627,12.813-5.125
		c6.906-0.916,17.523,11.964,23.828,8.333c2.541-1.381,3.608-1.907,5.799-3.977c2.091,7.511,0.105,3.942-3.721,4.469
		c-8.716,1.195-8.434,26.658-21.371,25.758c-8.927-1.353-12.056-1.193-17.349-1.193v-5.562c13.728-0.033,19.837,4.638,23.063,0.31
		c2.865-3.329,7.769-12.805,10.424-16.894c-12.098,11.882-15.299,0.805-33.487,7.728v-2.794c9.737-5.972,15.419,5.6,32.294-5.78
		c-8.706-3.04-15.73-6.79-17.98-5.54c-7.715,3.102-11.5,4.769-14.25,4.769L390.497,334.622z"/>
</g>
<polygon fill="#FFFFFF" points="306.818,219.612 328.54,215.285 366.475,224.897 366.555,227.141 364.305,232.531 359.242,239.362 
	349.359,245.549 330.314,249.209 315.527,243.541 307.492,229.651 "/>
<g>
	<defs>
		<rect id="SVGID_5_" x="179" y="52.455" width="464.234" height="520.545"/>
	</defs>
	<clipPath id="SVGID_6_">
		<use xlink:href="#SVGID_5_"  overflow="visible"/>
	</clipPath>
	<path clip-path="url(#SVGID_6_)" fill="#C0CCD3" d="M362.377,226.778c1.394,3.26-2.762,18.239-19.564,19.057
		c-19.445,0.947-22.422-16.905-21.146-21.555C327.012,218.754,356.893,224.926,362.377,226.778 M366.53,223.531l-28.212-6.268
		l-19.014-2.237l-10.606,2.559l0.16,15.107l9.804,12.856l11.522,4.019l10.817-1.484l10.816-3.498l8.309-6.54l3.696-4.846l1.669-3.98
		L366.53,223.531z"/>
	<path clip-path="url(#SVGID_6_)" fill="#0092D7" d="M331.877,233.018c9.617,0,17.414-7.797,17.414-17.414
		c0-2.485-0.52-4.849-1.457-6.986c-6.232-3.965-19.586-10.141-21.258-9.608c-7.027,2.243-12.115,8.824-12.115,16.595
		C314.461,225.221,322.258,233.018,331.877,233.018"/>
	<path clip-path="url(#SVGID_6_)" fill="#00639E" d="M331.877,228.503c7.123,0,12.899-5.776,12.899-12.899
		c0-7.125-5.776-12.9-12.899-12.9c-7.125,0-12.9,5.775-12.9,12.9C318.977,222.727,324.752,228.503,331.877,228.503"/>
	<path clip-path="url(#SVGID_6_)" d="M331.877,223.666c4.453,0,8.062-3.611,8.062-8.063s-3.609-8.062-8.062-8.062
		s-8.063,3.609-8.063,8.062S327.424,223.666,331.877,223.666"/>
	<path clip-path="url(#SVGID_6_)" fill="#FFFFFF" d="M339.27,222.995c1.42,0,2.57-1.151,2.57-2.571c0-1.421-1.15-2.572-2.57-2.572
		s-2.571,1.151-2.571,2.572C336.698,221.844,337.85,222.995,339.27,222.995"/>
	<path clip-path="url(#SVGID_6_)" fill="#00B8AA" d="M315.479,198.188c4.932-1.145,11.319,0.423,11.319,0.423l9,3.586l13.289,7.241
		l16.032,10.406l5.906,4.5l-9.914-0.983l-29.813-7.664l-18.351-1.688l-7.383-4.007C305.564,210.002,307.604,200.017,315.479,198.188
		"/>
	<path clip-path="url(#SVGID_6_)" fill="#00998D" d="M315.479,198.188c4.932-1.145,11.319,0.423,11.319,0.423l9,3.586l13.289,7.241
		l16.032,10.406l5.906,4.5c0,0-35.481-22.163-47.531-21.117c-6.047,0.525-7.094,11.101-7.094,11.101l-10.836-4.326
		C305.564,210.002,307.604,200.017,315.479,198.188"/>
	<path clip-path="url(#SVGID_6_)" d="M310.502,221.229c-1.363,39.094,53.75,28.625,55.084,4.344
		C365.33,227.65,331.002,211.604,310.502,221.229 M380.602,222.053c-3.375,3.712-11.016,4.02-12.725,4.051
		c-10,33-64.17,36.112-63.336-2.813c-5.43-0.496-9.664,0.034-12.974-0.363C319.317,197.779,363.84,227.003,380.602,222.053"/>
	<path clip-path="url(#SVGID_6_)" d="M298.346,218.984c0,0-13.55-0.969-23.068-9.711c11.012,6.845,31.928,5.348,31.928,5.348
		L298.346,218.984z"/>
	<path clip-path="url(#SVGID_6_)" d="M298.273,222.861c0,0-13.719,2.465-23.238-6.274c11.012,6.844,36.623-2.337,36.623-2.337
		L298.273,222.861z"/>
	<path clip-path="url(#SVGID_6_)" d="M307.346,216.125c0,0-12.529-1.291-22.049-10.031c11.012,6.843,30.188,5.66,30.188,5.66
		L307.346,216.125z"/>
	<path clip-path="url(#SVGID_6_)" d="M316.773,215.271c0,0-12.143-1.633-20.988-11.055c10.475,7.641,31.885,9.006,31.885,9.006
		L316.773,215.271z"/>
	<path clip-path="url(#SVGID_6_)" d="M306.877,206.078c2.174-5.4,4.75-8.475,10.5-10.35c12.547-4.093,42.49,23.191,53.85,25.725
		c8.439,1.881,8.48,0.354,9.07,0.322c0.589-0.031-0.67,0.877-0.67,0.877s-4.742,3.082-8.4,2.4s-33.672-28.771-53.85-25.05
		C311.308,201.121,306.877,206.078,306.877,206.078"/>
</g>
<polygon fill="#FFFFFF" points="472.404,219.612 450.683,215.285 412.748,224.897 412.668,227.141 414.918,232.531 419.98,239.362 
	429.863,245.549 448.908,249.209 463.695,243.541 471.73,229.651 "/>
<g>
	<defs>
		<rect id="SVGID_7_" x="179" y="52.455" width="464.234" height="520.545"/>
	</defs>
	<clipPath id="SVGID_8_">
		<use xlink:href="#SVGID_7_"  overflow="visible"/>
	</clipPath>
	<path clip-path="url(#SVGID_8_)" fill="#C0CCD3" d="M429.071,225.49c-1.394,3.261,0.786,21.402,21.091,20.695
		c19.456-0.678,16.46-19.034,15.848-22.614C460.663,218.045,434.557,223.637,429.071,225.49 M412.692,223.531l28.212-6.268
		l19.013-2.237l10.607,2.559l-0.16,15.107l-9.804,12.856l-11.522,4.019l-9.459-0.543l-12.175-4.439l-8.309-6.54l-3.696-4.846
		l-1.669-3.98L412.692,223.531z"/>
	<path clip-path="url(#SVGID_8_)" fill="#0092D7" d="M447.346,233.018c-9.617,0-17.414-7.797-17.414-17.414
		c0-2.485,0.52-4.849,1.457-6.986c6.232-3.965,19.586-10.141,21.258-9.608c7.026,2.243,12.115,8.824,12.115,16.595
		C464.762,225.221,456.964,233.018,447.346,233.018"/>
	<path clip-path="url(#SVGID_8_)" fill="#00639E" d="M447.346,228.503c-7.123,0-12.899-5.776-12.899-12.899
		c0-7.125,5.776-12.9,12.899-12.9c7.125,0,12.9,5.775,12.9,12.9C460.246,222.727,454.471,228.503,447.346,228.503"/>
	<path clip-path="url(#SVGID_8_)" d="M447.346,223.666c-4.453,0-8.062-3.611-8.062-8.063s3.609-8.062,8.062-8.062
		s8.063,3.609,8.063,8.062S451.799,223.666,447.346,223.666"/>
	<path clip-path="url(#SVGID_8_)" fill="#FFFFFF" d="M454.132,222.031c-1.42,0-2.571-1.15-2.571-2.57
		c0-1.422,1.151-2.572,2.571-2.572s2.571,1.15,2.571,2.572C456.703,220.881,455.552,222.031,454.132,222.031"/>
	<path clip-path="url(#SVGID_8_)" fill="#00B8AA" d="M463.744,198.188c-4.932-1.145-11.32,0.423-11.32,0.423l-9,3.586l-13.288,7.241
		l-16.032,10.406l-5.906,4.5l9.914-0.983l29.812-7.664l18.352-1.688l7.383-4.007C473.658,210.002,471.619,200.017,463.744,198.188"
		/>
	<path clip-path="url(#SVGID_8_)" fill="#00998D" d="M463.744,198.188c-4.932-1.145-11.32,0.423-11.32,0.423l-9,3.586l-13.288,7.241
		l-16.032,10.406l-5.906,4.5c0,0,16.389-3.931,29.684-6.69c-0.613-9.375,23.199-18.922,29.387-16.313
		C466.858,198.546,468.205,200.779,463.744,198.188"/>
	<path clip-path="url(#SVGID_8_)" d="M468.722,221.229c1.362,39.094-53.75,28.625-55.085,4.344
		C413.893,227.65,448.222,211.604,468.722,221.229 M398.826,221.885c1.014,2.868,10.812,4.188,12.521,4.219
		c10,33,64.168,36.111,63.335-2.813c5.429-0.496,9.665,0.033,12.973-0.364C459.904,197.78,416.354,225.025,398.826,221.885"/>
	<path clip-path="url(#SVGID_8_)" d="M480.877,218.984c0,0,13.55-0.969,23.068-9.711c-11.012,6.845-31.928,5.348-31.928,5.348
		L480.877,218.984z"/>
	<path clip-path="url(#SVGID_8_)" d="M480.949,222.861c0,0,13.719,2.465,23.238-6.274c-11.012,6.844-36.623-2.337-36.623-2.337
		L480.949,222.861z"/>
	<path clip-path="url(#SVGID_8_)" d="M471.877,216.125c0,0,12.529-1.291,22.049-10.031c-11.012,6.843-30.188,5.66-30.188,5.66
		L471.877,216.125z"/>
	<path clip-path="url(#SVGID_8_)" d="M462.449,215.271c0,0,12.143-1.633,20.988-11.055c-10.475,7.641-31.886,9.006-31.886,9.006
		L462.449,215.271z"/>
	<path clip-path="url(#SVGID_8_)" d="M472.346,206.078c-2.175-5.4-4.75-8.475-10.5-10.35c-12.547-4.093-42.49,23.191-53.85,25.725
		c-8.439,1.881-8.48,0.354-9.07,0.322c-0.589-0.031,0.67,0.877,0.67,0.877s4.742,3.082,8.4,2.4s33.672-28.771,53.85-25.05
		C467.915,201.121,472.346,206.078,472.346,206.078"/>
	<path clip-path="url(#SVGID_8_)" d="M452.734,162.17c2.028,0.713,14.283,2.806,15.991,3.841c4.368-4.132-3.157,3.321,3.615-3.521
		C469.468,161.902,454.785,162.113,452.734,162.17 M607.627,208.009c-29.864-20.36-42.075-3.281-76.705-26.497
		c-54.52-36.55-71.836-43.404-37.872-30.697c3.319,1.83,31.673,5.963,48.824,22.592
		C564.201,195.053,590.752,190.328,607.627,208.009 M483.234,129.353c-33-9-128.205,15.665-195.205,80.415
		c-0.193,0.641,5.9,114.231-3.364,198.023c-1.06,8.591,8.257,18.876,25.462,28.562c-10,4.5-18-3.5-62-35
		c-4.154-3.461-10.148-11.574-8.409-20.574c17.05-42.75,39.155-159.881,40.873-167.823c-4.166-11.23-5.25-16.25-11.364-36.633
		c38.424-32.597,35.538-114.273,123.784-118.276C430.197,57.353,483.195,123.869,483.234,129.353 M327.984,347.084
		c6.078,10.797,28.356,38.871,61.856,46.871c-6.021-1.886-47.5,21-60.868-19.871C328.305,364.392,328.388,358.944,327.984,347.084
		 M414.484,392.608c15.576-19.729,40.143-55.736,46.719-68.544c-1.24,11.849-0.756,16.521-2.485,45.251
		C451.195,369.146,427.947,392.298,414.484,392.608 M627.033,214.947c-14.456-25.52-56.082-19.444-70.953-36.095
		c-21.77-24.375-26.276-25.903-48.739-33.3c-14.914-22.95-60.75-97.8-118.147-92.865c-91.453,9.915-91.254,84.639-126.316,114.69
		c-8.7,7.088-7.311,10.003-4.9,15.3c5.614,12.777,8.614,20.277,14.614,39.277c-10.261,39.277-45.964,158.397-42.464,176.897
		c5.541,7.616,25.529,24.568,67.52,48.789c2.869,1.323,4.846,2.25,9.444,1.384c24.25-5.82,57.625-20.104,60.25-29.479
		c-18,7.909-33.75,16.159-38.479,14.855c-11.789-3.247-36.146-13.903-38.035-22.448c-1.756-6.271-2.475-12.15-2.655-19.398
		c15.892,43.134,48.679,39.739,64.901,26.258c0,0-27.731,16.518-47.606-4.67c-5.832-6.217-12.92-17.062-13.312-32.029
		c9,39.188,35.777,45.941,40.481,43.241c-18.92-5.85-50.743-30.094-23.295-110.149c3.144,6.375,9.536,19.417,12.017,23.052
		c-0.104,12.573-0.104,30.686-0.104,39.198c18.562,39.75,44.837,49,63.587,56c48.25-2,80.5-47.7,83.75-54.75
		c-0.75-27.25-0.199-62.771,0-66.5c2.659-8.182,8.911-29.555,10.786-36.853c0.637,6.548,0.783,8.819,2.5,13.638
		c0.576,1.802,2.664,3.513,5.375,3.73c10.803-2.944,14.433-11.487,11.916-18.828c-0.736,3.786-7.01,16.341-12.416,12.96
		c-2.692-2.179-2.288-16.687-2.625-21.25c0.594-8.919,1.555-22.306,2.277-26.772c-0.283,16.701,0.586,23.256,2.104,25.125
		c0.851,0.339,2.61-4.58,2.813-6.861c-0.676,1.912-1.735,2.105-1.847,0.955c-2.483-8.915,2.74-23.156,4.651-28.071
		c1.464-3.932,12.41-28.421,7.9-33.725c-0.9,1.2-18.77-9.903-19.078-12.025c2.361,3.892,3.994-6.112-8.531-13.7
		c-3.363,0.643-11.004,0.281-9.893,1.236c-18.898-5.025-51.783,40.666-65.185,27.661c13.401,18.964,58.843-32.976,77.093-15.726
		c2.574,1.863,7.27,39.808,1.336,81.692c-0.941,6.644-22.121,17.779-31.955,44.779c10.653-17.386,12.449-18.062,20.642-25.562
		c-14.113,55.023-46.603,89.79-53.966,94.085c-7.363,4.296-28.032,7.291-40.311,2.359c-31.66-12.718-55.37-67.799-63.445-92.636
		c8.529,8.308,9.707,7.686,18.537,21.737c-6.354-16.219-21.584-30.387-26.395-37.177c-5.389-6.409-6-49.687-6-64.687
		c4.589-4.342,10.904-9.881,25.096-18.188c20.77-4.327,49.957,21.697,60.887,5.304c-12.215,11.347-35.291-13.869-47.732-13.338
		c28.643-22.074,129.099-41.947,133.428-42.844c16.178,9.846,10.102,18.844,4.03,24.977c25.336,5.188,78.581,32.74,88.892,35.576
		c18.184,5.002,30.825-2.106,51.55,12.604c14.937,10.601,6.051,21.847-4.899,22.347C586.702,235.615,645.672,247.85,627.033,214.947
		"/>
	<path clip-path="url(#SVGID_8_)" fill="#754D4E" d="M492.703,134.545"/>
	<path clip-path="url(#SVGID_8_)" fill="#754D4E" d="M234.77,318.953"/>
	<path clip-path="url(#SVGID_8_)" d="M293.875,206.205c-9.5-34.438-12.989-38.352-12.989-38.352s7.236,35.795,6.955,43.686
		C287.814,212.518,297.959,202.34,293.875,206.205"/>
	<path clip-path="url(#SVGID_8_)" d="M373.416,224.428c3.586-0.075,6.961-2.62,6.961-2.62c0.818,24.75,0.097,10.099,0.232,42.032
		C377.201,244.791,377.184,224.49,373.416,224.428"/>
	<path clip-path="url(#SVGID_8_)" d="M540.082,452.166c-2.789-8.559-12.443-8.784-15.024-17.595
		C537.254,430.367,540.074,448.586,540.082,452.166 M526.217,426.841c-0.989-5.562-6.287,8.239-9.434,0.909
		c4.394-1.012,2.877-6.896,8.888-6.575C525.238,424.495,528.939,425.743,526.217,426.841 M512.895,407.169
		c-3.551,6.34-8.723,11.34-15.712,14.85c0.718-4.625-3.688-13.47,0.435-15.284c2.479,2.612,3.09,7.498,6.572,8.892
		c-6.039-8.773-9.148-20.229,1.229-26.778C504.964,398.525,511.674,399.521,512.895,407.169 M493.548,384.271
		c3.399-5.303,0.328-15.941,5.735-19.594C503.061,374.218,498.107,392.946,493.548,384.271 M460.169,433.201
		c-17.655-30.314,9.521-86.046,4.672-84.246c1.761-14.189-1.435-22.736,1.5-18.5C463.841,334.955,456.865,381.829,460.169,433.201
		 M451.811,346.395c-10.708,28.233-24.047,54.302-17.333,96.898C393.926,424.848,434.939,360.21,451.811,346.395 M436.363,443.111
		c-0.658-12.708-4.737-28.233,0.32-36.223c-0.754,20.586,6.653,31.273,17.027,38.358
		C446.061,446.804,441.451,444.659,436.363,443.111 M440.863,450.297c9.653,2.34,25.193-2.465,27.513,8.773
		C455.689,460.408,444.195,460.306,440.863,450.297 M475.125,469.851c6.71,1.758,13.402,14.566,11.435,19.848
		C481.05,485.145,477.229,478.538,475.125,469.851 M499.181,442.774c5.679,2.111,9.091-6.068,11.326-1.091
		c-3.824,2.058-5.026,6.281-10.781,6.749C499.544,446.545,499.363,444.664,499.181,442.774 M500.494,495.974
		c1.246-9.396,1.486-19.626,2.938-28.849c11.485,3.095,13.486,19.324,2.362,24.534c-0.511-2.199-0.193-5.392-2.435-5.486
		C504.091,490.831,504.595,495.3,500.494,495.974 M553.091,425.455h-3v-13.023c-4.321-2.297-6.05-9.729-3.593-12.304
		c1.125,2.003,2.33,3.906,3.593,5.743V335.22c-30.763-4.454-48.767,2.962-48.821-45.443c-23.143,8.036-20.572-17.839-20.572-17.839
		c-4.018,2.571-6.086,9.863-4.511,11.158c-9.592,44.121-53.597,73.437-66.829,116.9c-10.689,35.113,21.18,45.148,42.215,62.598
		c5.033-0.483,10.062-0.969,15.097-1.453c7.952,13.533,12.817,30.819,23.049,41.583c-7.513,8.867-15.719,17.16-11.826,35.424
		c4.03-9.417,2.857-23.13,12.552-27.876c0.254,4.843-2.822,6.944-4.75,9.981c4.476,4.142,4.992-9.68,10.414-10.527
		c-7.912,10.713,8.059,3.046,1.635,16.985c8.906,2.39,8.334-18.201,7.072-25.441c13.569-13.194,17.564-41.439-4.725-49.059
		c5.611-5.221,12.414-9.464,17.602-15.032c18.254,6,28.836,35.453,22.25,53.09c2.416-1.479,3.129-4.369,3.047-7.911
		c3.789,0.76,7.123,0.876,10.103,0.502v-3.832c-1.528-0.029-3.127-0.329-4.802-0.984c2.715-5.135,4.046-11.41,4.802-18.16V425.455z"
		/>
	<path clip-path="url(#SVGID_8_)" d="M392.32,157.872c17.245,6.029,33.223,13.683,58.88,8.948
		C440.686,191.639,400.942,167.856,392.32,157.872 M451.061,165.684c-7.676,0.599-17.002,3.312-21.914,0.379
		c12.464,0.13,18.81-4.52,22.93-10.905C453.141,159.76,451.916,162.581,451.061,165.684 M455.334,162.848
		c1.264-5.875-1.889-15.198,4.871-16.778C461.215,153.721,461.335,160.674,455.334,162.848 M378.439,154.871
		c15.316,9.793,29.363,22.967,46.971,27.828c21.407,5.909,26.973-13.525,37.193-26.523c-0.373-3.037-0.746-6.07-1.119-9.107
		c3.559-2.219,7.564-4.09,11.48-6.029l-2.478-0.558c-1.202,0.513-2.487,0.962-3.869,1.335c0.157-0.667,0.505-1.338,0.97-1.989
		l-12.746-2.872l-20.5,0.5l-29,5l-12.099,5.584c11.868,1.963,32.547,5.116,51.446,3.403c-18.055,11.157-54.094-1.028-52.928,1.876
		c-2.973-0.29-5.088-0.877-6.506-1.594L378.439,154.871z"/>
	<path clip-path="url(#SVGID_8_)" d="M298.068,200.768c-1.295,1.449-19.842,14.027-19.842,14.027l-1.797,9.496l15.035-12.027
		L298.068,200.768z"/>
	<path clip-path="url(#SVGID_8_)" fill="#754D4E" d="M493.17,279.822c1.252,0,2.268-1.17,2.268-2.613s-1.016-2.613-2.268-2.613
		s-2.268,1.17-2.268,2.613S491.918,279.822,493.17,279.822"/>
	<path clip-path="url(#SVGID_8_)" fill="#5A6870" d="M496.477,278.717c-1.832-5.452-5.991-2.832-5.198-0.204
		c0.114,0.377,0.554,1.013,0.75,1.868c0.196,0.856,8.649,65.479-0.304,64.805c-4.599-0.347-3.028-43.097-2.446-57.793
		c-1.156,0.094-1.687,0.062-2.875-0.938c-1.601,12-4.37,26.464-4.543,52.067c-0.077,11.299,2.25,15.058,10.763,15.157
		c8.545,0.1,13.198-3.764,14.111-13.439C508.342,323.205,497.076,280.499,496.477,278.717"/>
	<path clip-path="url(#SVGID_8_)" fill="#B3C1C9" d="M496.477,278.717c-1.305-3.885-3.789-3.671-4.823-2.276
		c3.063,2.89,12.28,70.62,0.563,74.787c-7.037,2.503-9.32-2.688-8.33-1.145c1.619,2.521,4.358,3.545,8.736,3.597
		c8.545,0.1,13.198-3.764,14.111-13.439C508.342,323.205,497.076,280.499,496.477,278.717"/>
	<path clip-path="url(#SVGID_8_)" fill="#B3C1C9" d="M491.726,345.186c-4.599-0.346-3.029-43.096-2.447-57.793
		c-1.155,0.093-0.921,0.625-2.108-0.375c-1.601,12-2.562,21.459-2.735,47.062C484.358,345.379,488.09,345.603,491.726,345.186"/>
	<path clip-path="url(#SVGID_8_)" fill="#FFFFFF" d="M491.75,345.26c-1.027,0.098-3.043,0.021-4.266-0.594
		c-3.859-0.943-3.84-17.197-2.609-28.769C484.875,342.598,488.455,342.405,491.75,345.26"/>
	<path clip-path="url(#SVGID_8_)" fill="#FFFFFF" d="M496.477,278.717c-1.043-3.107-2.842-3.593-4.051-2.947
		c10.125,33.94,13.183,50.243,14.309,64.471c0.514-5.451-0.29-13.531-1.641-22.057C502.225,300.064,496.885,279.93,496.477,278.717"
		/>
	<path clip-path="url(#SVGID_8_)" fill="#754D4E" d="M365.166,295.381c-4.398,3.013-0.072,6.165-0.072,6.165
		s16.23,15.005,18.379,16.948c-3.467-0.818-11.905-3.988-13.93-4.909c-2.025-0.92-10.207-9.92-10.617-13.295
		C358.518,296.915,360.092,294.46,365.166,295.381"/>
	<path clip-path="url(#SVGID_8_)" d="M367.062,295.165c-1.756,0.37-3.162,0.398-4.305,1.538c-4.976,4.962,4.648,16.126,8.865,17.724
		c-5.084-1.085-18.865-13.767-12.345-19.628C360.84,293.396,363.324,294.869,367.062,295.165"/>
	<path clip-path="url(#SVGID_8_)" d="M390.689,319.853c-0.01-0.349-0.01-0.323,0-0.883c-8.786-0.098-14.995-17.153-20.357-17.211
		c-3.167,0.094-1.761,5.414,1.473,9.563C374.135,302.804,381.1,319.88,390.689,319.853"/>
	<path clip-path="url(#SVGID_8_)" d="M487.768,233.278c8,2.375,13.375,24.875,17.5,27.5c6.375,1.125,4.625-22.987,4.625-22.987
		l-9.625-15.763C500.268,222.028,488.143,227.153,487.768,233.278"/>
</g>
</svg>
