<?xml version="1.0" encoding="utf-8"?>
<!-- Generator: Adobe Illustrator 14.0.0, SVG Export Plug-In . SVG Version: 6.00 Build 43363)  -->
<!DOCTYPE svg PUBLIC "-//W3C//DTD SVG 1.1//EN" "http://www.w3.org/Graphics/SVG/1.1/DTD/svg11.dtd">
<svg version="1.1" id="Layer_1" xmlns="http://www.w3.org/2000/svg" xmlns:xlink="http://www.w3.org/1999/xlink" x="0px" y="0px"
	 width="792px" height="612px" viewBox="0 0 792 612" enable-background="new 0 0 792 612" xml:space="preserve">
<polygon fill="#C7A399" points="306.854,263.99 326.599,192.416 354.242,160.699 478.635,155.394 515.902,198.338 537.375,263.99 
	553.172,254.364 569.461,261.522 573.903,315.82 559.588,364.689 547.742,381.967 531.945,379.991 513.188,427.873 476.66,477.729 
	444.574,505.043 422.854,513.764 408.047,511.789 372.506,486.614 330.054,431.287 307.841,379.498 292.539,378.512 
	271.807,335.072 268.393,274.727 284.146,253.459 "/>
<g>
	<defs>
		<rect id="SVGID_1_" x="259" y="88.731" width="324" height="428.269"/>
	</defs>
	<clipPath id="SVGID_2_">
		<use xlink:href="#SVGID_1_"  overflow="visible"/>
	</clipPath>
	<path clip-path="url(#SVGID_2_)" fill="#FDD6B7" d="M410.856,358.994c0,0-10.517-17.854-10.304-37.865
		c-19.861,33.688-62.361,24.132-65.84,21.158c-58.595-50.122,32.879-114.027,67.485-61.549
		c-13.396-36.875-8.007-82.211-9.824-110.988c-4.073-19.005,86.261-14.357,86.261-14.357l37.269,42.946l21.472,65.651l15.797-9.625
		l16.289,7.156l4.443,54.3l-14.316,48.868l-11.847,17.276l-15.795-1.974l-18.759,47.881l-36.527,49.855l-32.086,27.314l-4.689,4.316
		c0,0,1.486,4.053-17.646,1.671c-26.836-3.343-35.189-41.281-5.236-35.98c-13.664-2.134-25.21-66.322,3.491-71.364
		C373.369,337.692,410.856,358.994,410.856,358.994"/>
	<path clip-path="url(#SVGID_2_)" fill="#ABB8BF" d="M390.522,173.164c-19.14,69.909-81.377,80.031-81.377,80.031
		c5.863-29.85,9.218-54.996,34.021-81.635c3.861-5.386,9.724-9.063,12.557-16.97c-5.672-4.829-9.163-13.188-9.163-19.004
		c0-13.272,29.005-38.688,74.321-38.688c45.314,0,73.982,25.416,73.982,38.688c0,5.929-3.17,14.079-9.164,19.004
		c0.232,3.797,0.838,4.409,6.448,12.353c20.634,18.672,35.443,53.674,43.099,86.403
		C535.246,253.347,446.943,258.808,390.522,173.164"/>
	<path clip-path="url(#SVGID_2_)" d="M278.91,296.588c3.248-35.339,27.271,1.75,17.006,58.916
		c2.055-14.583-1.256-51.916-7.674-62.999C285.069,287.023,280.504,288.773,278.91,296.588"/>
	<path clip-path="url(#SVGID_2_)" d="M561.797,296.588c-3.248-35.339-27.271,1.75-17.006,58.916
		c-2.055-14.583,1.256-51.916,7.674-62.999C555.638,287.023,560.203,288.773,561.797,296.588"/>
	<path clip-path="url(#SVGID_2_)" d="M344.184,382.646c13.188-6.496,26.375-17.356,28.799-26.374
		c2.889-10.748,19.138-15.943,27.015-5.423c-12.229-6.294-25.392,6.066-15.347,17.913c9.621,11.347,27.944,33.634,36.265,33.634
		c8.319,0,26.642-22.287,36.263-33.634c10.045-11.847-3.115-24.207-15.345-17.913c7.876-10.521,24.125-5.325,27.015,5.423
		c2.424,9.018,15.61,19.878,28.797,26.374c-8.211-0.887-23.707-8.673-30.361-16.244c-9.754,20.127-35.573,44.909-46.334,44.909
		c-10.928,0-36.719-24.924-46.403-44.909C367.891,373.973,352.396,381.759,344.184,382.646"/>
	<path clip-path="url(#SVGID_2_)" d="M381.268,419.84c0.246-0.926,1.234-3.073,2.035-4.122
		c4.998,31.709,27.459,53.941,37.607,54.114v10.119C406.318,479.951,381.363,447.125,381.268,419.84"/>
	<path clip-path="url(#SVGID_2_)" d="M392.271,413.601c-8.121-1.174-16.857,5.107-19.727,14.567
		C376.572,423.571,387.613,415.874,392.271,413.601"/>
	<path clip-path="url(#SVGID_2_)" d="M449.305,413.601c8.119-1.174,16.857,5.107,19.726,14.567
		C465.004,423.571,453.963,415.874,449.305,413.601"/>
	<path clip-path="url(#SVGID_2_)" d="M460.523,419.84c-0.247-0.926-1.234-3.073-2.036-4.122
		c-4.998,31.709-27.458,53.941-37.606,54.114v10.119C435.473,479.951,460.428,447.125,460.523,419.84"/>
	<path clip-path="url(#SVGID_2_)" fill="#839097" d="M349.457,121.786c-10.068,11.504-0.627,32.344,7.518,36.303
		c4.639-1.019,61.676-20.358,66.922-20.785c-40.422,1.827-47.082-29.023-26.406-37.69
		C373.057,102.016,349.102,123.268,349.457,121.786"/>
	<path clip-path="url(#SVGID_2_)" fill="#839097" d="M487.396,181.062c-23.982-13.877-48.66-24.048-62.758-22.884
		c7.975,3.461,36.332,19.017,70.662,49.127c-30.678-9.625-64.709-28.427-81.961-37.707c13.291,25.197,66.184,48.929,99.396,63.047
		c-34.569-7.059-80.519-2.789-121.966-58.987c-10.52,44.457-54.051,71-79.262,77.265c-4.267-12.113,24.629-85.067,49.645-95.2
		C421.299,131.357,462.381,153.076,487.396,181.062"/>
	<path clip-path="url(#SVGID_2_)" d="M545.388,372.208c-7.487,4.195-13.672,1.448-15.724-0.925c-1.545-0.72-4-0.254-4.84,3.761
		C512.887,432.042,454.318,505.21,421.09,505.21c-33.163,0-87.17-57.226-103.462-130.771c-0.367-1.655-3.493-5.09-5.114-3.161
		c-2.051,2.377-7.168,4.957-15.977,0.477c-12.28-5.701-27.019-63.007-23.76-88.882c3.254-20.915,19.145-35.974,37.028-5.849
		c2.116-22.84,10.384-74.48,41.8-108.224c12.36-13.276,34.637-28.46,34.637-28.46c-10.482,2.984-19.723,7.307-27.896,12.559
		c-5.671-4.828-8.68-10.389-8.68-16.203c0-13.273,25.876-32.594,71.191-32.594s71.191,19.32,71.191,32.594
		c0,5.928-3.171,11.627-9.166,16.553c-8.077-5.271-17.041-9.547-26.947-12.549c0,0,8.272,5.822,32.372,27.631
		c25.806,23.353,39.961,69.841,45.011,109.093c20.434-31.203,34.775-11.344,37.283,7.057
		C573.859,310.354,557.667,366.507,545.388,372.208 M543.375,252.426c-4.651-36.152-22.504-70.03-53.211-93.963
		c8.055-6.297,15.316-10.434,15.158-21.768c-0.345-24.67-32.858-47.965-84.465-47.965c-50.203,0-84.593,21.743-84.465,47.965
		c0.053,10.883,6.895,15.149,14.631,21.359c-36.06,27.866-48.502,65.282-52.38,93.207c-74.855-40.723-26.55,152.424,5.644,130.914
		C328.861,464.895,388.839,517,421.132,517s98.267-62.636,116.769-136.264C572.217,412.735,616.678,213.253,543.375,252.426"/>
	<path clip-path="url(#SVGID_2_)" d="M310.369,243.296c45.067-7.059,76.174-54.903,79.906-75.809
		c33.938,62.307,99.128,76.715,142.369,77.48c0.339,4.751,4.975,15.757,1.607,16.312c-38.01,3.102-104.42-16.29-142.988-85.155
		c-4.689,29.1-38.146,75.2-82.188,82.44C308.396,254.775,307.653,248.16,310.369,243.296"/>
	<path clip-path="url(#SVGID_2_)" fill="#FFFFFF" d="M311.207,299.739c31.742-30.644,75.161-16.875,87.453-7.971
		c-0.294,3.538-3.552,11.321-6.539,14.126C374.385,299.108,339.217,292.737,311.207,299.739"/>
	<path clip-path="url(#SVGID_2_)" fill="#0084CB" d="M385.154,303.09c3.619-3.077,6.32-8.824,7.396-13.851
		c-22.872-9.407-56.975-8.29-56.975-6.062c0,5.343,1.455,10.345,3.988,14.634C343.344,297.117,349.521,295.37,385.154,303.09"/>
	<path clip-path="url(#SVGID_2_)" fill="#00AEEF" d="M376.554,301.03c4.774-3.262,8.175-8.389,9.149-14.333
		c-12.404-6.774-42.926-5.93-42.926-3.521c0,4.995,1.695,9.594,4.541,13.253C366.964,298.021,369.949,299.107,376.554,301.03"/>
	<path clip-path="url(#SVGID_2_)" d="M364.383,293.76c6.109,0,11.062-4.953,11.062-11.062c0-1.588-22.124-1.711-22.124,0
		C353.321,288.807,358.273,293.76,364.383,293.76"/>
	<path clip-path="url(#SVGID_2_)" fill="#FFFFFF" d="M372.962,289.95c2.103,0,3.808-1.704,3.808-3.807s-1.705-3.808-3.808-3.808
		s-3.808,1.705-3.808,3.808S370.859,289.95,372.962,289.95"/>
	<path clip-path="url(#SVGID_2_)" d="M402.516,293.384c2.113,3.316-49.269-30.164-90.419,6.373
		c27.325-11.088,71.429-1.102,81.474,7.225c-10.826-3.143-44.77-15.629-86.135-5.042
		C346.756,259.685,379.712,282.033,402.516,293.384"/>
	<path clip-path="url(#SVGID_2_)" fill="#FFFFFF" d="M530.602,299.739c-31.742-30.644-75.162-16.875-87.453-7.971
		c0.293,3.538,3.552,11.321,6.539,14.126C467.424,299.108,502.592,292.737,530.602,299.739"/>
	<path clip-path="url(#SVGID_2_)" fill="#0084CB" d="M456.654,303.09c-3.619-3.077-6.32-8.824-7.396-13.851
		c22.872-9.407,56.975-8.29,56.975-6.062c0,5.343-1.455,10.345-3.988,14.634C498.465,297.117,492.287,295.37,456.654,303.09"/>
	<path clip-path="url(#SVGID_2_)" fill="#00AEEF" d="M465.255,301.03c-4.775-3.262-8.175-8.389-9.149-14.333
		c12.404-6.774,42.926-5.93,42.926-3.521c0,4.995-1.695,9.594-4.541,13.253C474.845,298.021,471.859,299.107,465.255,301.03"/>
	<path clip-path="url(#SVGID_2_)" d="M477.426,293.76c-6.109,0-11.062-4.953-11.062-11.062c0-1.588,22.124-1.711,22.124,0
		C488.487,288.807,483.534,293.76,477.426,293.76"/>
	<path clip-path="url(#SVGID_2_)" fill="#FFFFFF" d="M468.847,289.95c-2.103,0-3.808-1.704-3.808-3.807s1.705-3.808,3.808-3.808
		s3.808,1.705,3.808,3.808S470.949,289.95,468.847,289.95"/>
	<path clip-path="url(#SVGID_2_)" d="M439.293,293.384c-2.113,3.316,49.269-30.164,90.418,6.373
		c-27.324-11.088-71.428-1.102-81.473,7.225c10.826-3.143,44.77-15.629,86.135-5.042
		C495.053,259.685,462.096,282.033,439.293,293.384"/>
	<path clip-path="url(#SVGID_2_)" fill="#FFFFFF" d="M393.145,308.275c-2.135,12.386-14.59,27.434-37.423,27.015
		c0.253-1.191,0.604-2.3,1.078-5.072C362.865,331.604,382.21,328.398,393.145,308.275"/>
</g>
<polygon fill="#FFFFFF" points="353.665,330.013 352.328,335.195 347.011,334.229 348.369,329.148 "/>
<g>
	<defs>
		<rect id="SVGID_3_" x="259" y="88.731" width="324" height="428.269"/>
	</defs>
	<clipPath id="SVGID_4_">
		<use xlink:href="#SVGID_3_"  overflow="visible"/>
	</clipPath>
	<path clip-path="url(#SVGID_4_)" fill="#FFFFFF" d="M524.932,308.275c-2.135,12.386-14.59,27.434-37.423,27.015
		c0.253-1.191,0.604-2.3,1.078-5.072C494.652,331.604,513.997,328.398,524.932,308.275"/>
</g>
<polygon fill="#FFFFFF" points="485.452,330.013 484.115,335.195 478.798,334.229 480.156,329.148 "/>
<rect x="301.715" y="364.299" width="2.771" height="67.038"/>
<g>
	<defs>
		<rect id="SVGID_5_" x="259" y="88.731" width="324" height="428.269"/>
	</defs>
	<clipPath id="SVGID_6_">
		<use xlink:href="#SVGID_5_"  overflow="visible"/>
	</clipPath>
	<path clip-path="url(#SVGID_6_)" d="M303.388,369.111c2.528,0,4.58-2.05,4.58-4.58c0-2.528-2.052-4.578-4.58-4.578
		s-4.58,2.05-4.58,4.578C298.808,367.062,300.859,369.111,303.388,369.111"/>
	<path clip-path="url(#SVGID_6_)" d="M304.354,461.216c23.303,11.841,55.882-60.105-0.779-50.432
		C249.83,397.039,277.883,474.263,304.354,461.216"/>
	<path clip-path="url(#SVGID_6_)" fill="#C61D23" d="M304.322,458.231c17.422,8.095,42.672-51.837-0.343-42.938
		C259.404,406.644,287.693,467.254,304.322,458.231"/>
	<path clip-path="url(#SVGID_6_)" fill="#ED1C24" d="M306.023,455.091c17.354,11.124,36.793-49.573-1.896-33.556
		C277.47,418.171,289.395,464.112,306.023,455.091"/>
	<path clip-path="url(#SVGID_6_)" d="M304.195,419.191c5.966-26.678-19.318-27.445-40.791-25.472
		C271.014,400.632,288.141,437.762,304.195,419.191"/>
	<path clip-path="url(#SVGID_6_)" fill="#72BF44" d="M303.332,418.175c-1.319-21.067-14.807-20.554-28.932-19.127
		C282.009,405.96,294.412,430.591,303.332,418.175"/>
	<path clip-path="url(#SVGID_6_)" fill="#007F3E" d="M303.332,418.175c-7.897-10.057-16.508-18.123-28.932-19.127
		C282.009,405.96,294.412,430.591,303.332,418.175"/>
</g>
<rect x="539.148" y="364.299" width="2.771" height="67.038"/>
<g>
	<defs>
		<rect id="SVGID_7_" x="259" y="88.731" width="324" height="428.269"/>
	</defs>
	<clipPath id="SVGID_8_">
		<use xlink:href="#SVGID_7_"  overflow="visible"/>
	</clipPath>
	<path clip-path="url(#SVGID_8_)" d="M540.82,369.111c2.529,0,4.58-2.05,4.58-4.58c0-2.528-2.051-4.578-4.58-4.578
		c-2.528,0-4.58,2.05-4.58,4.578C536.24,367.062,538.292,369.111,540.82,369.111"/>
	<path clip-path="url(#SVGID_8_)" d="M541.787,461.216c23.303,11.841,55.883-60.105-0.779-50.432
		C487.263,397.039,515.316,474.263,541.787,461.216"/>
	<path clip-path="url(#SVGID_8_)" fill="#C61D23" d="M541.755,458.231c17.423,8.095,42.672-51.837-0.343-42.938
		C496.838,406.644,525.126,467.254,541.755,458.231"/>
	<path clip-path="url(#SVGID_8_)" fill="#ED1C24" d="M543.456,455.091c17.354,11.124,36.793-49.573-1.896-33.556
		C514.903,418.171,526.827,464.112,543.456,455.091"/>
	<path clip-path="url(#SVGID_8_)" d="M537.197,419.191c-5.965-26.678,19.319-27.445,40.793-25.472
		C570.381,400.632,553.254,437.762,537.197,419.191"/>
	<path clip-path="url(#SVGID_8_)" fill="#72BF44" d="M538.062,418.175c1.317-21.067,14.805-20.554,28.932-19.127
		C559.385,405.96,546.982,430.591,538.062,418.175"/>
	<path clip-path="url(#SVGID_8_)" fill="#007F3E" d="M538.062,418.175c7.896-10.057,16.508-18.123,28.932-19.127
		C559.385,405.96,546.982,430.591,538.062,418.175"/>
	<path clip-path="url(#SVGID_8_)" fill="#BA006F" d="M438.754,297.555c-3.326-10.974-9.996-16.067-17.698-16.067
		s-14.373,5.094-17.698,16.067l2.991,10.259c3.069-8.414,8.499-12.82,14.707-12.82c6.207,0,11.638,4.406,14.706,12.82
		L438.754,297.555z"/>
	<path clip-path="url(#SVGID_8_)" fill="#BA006F" d="M400.088,296.414c0,25.182-20.413,45.595-45.594,45.595
		c-25.182,0-45.594-20.413-45.594-45.595c0-25.181,20.412-45.594,45.594-45.594C379.675,250.82,400.088,271.233,400.088,296.414
		 M411.486,296.414c0-31.476-25.516-56.992-56.992-56.992s-56.992,25.517-56.992,56.992c0,31.477,25.516,56.992,56.992,56.992
		S411.486,327.891,411.486,296.414"/>
	<path clip-path="url(#SVGID_8_)" fill="#BA006F" d="M531.999,296.414c0,25.182-20.413,45.595-45.595,45.595
		c-25.18,0-45.592-20.413-45.592-45.595c0-25.181,20.412-45.594,45.592-45.594C511.586,250.82,531.999,271.233,531.999,296.414
		 M543.396,296.414c0-31.476-25.516-56.992-56.992-56.992c-31.475,0-56.991,25.517-56.991,56.992
		c0,31.477,25.517,56.992,56.991,56.992C517.881,353.406,543.396,327.891,543.396,296.414"/>
	<path clip-path="url(#SVGID_8_)" fill="#BA006F" d="M294.433,256.147c-4.019,4.524-4.657,13.688,0,20.69c4.864,0.123,9.38,0,9.38,0
		l10.844-20.69C314.656,256.147,301.107,256.034,294.433,256.147"/>
	<path clip-path="url(#SVGID_8_)" fill="#BA006F" d="M545.822,256.147c4.019,4.524,4.657,13.688,0,20.69
		c-4.865,0.123-9.379,0-9.379,0l-11.606-20.69C524.837,256.147,539.147,256.034,545.822,256.147"/>
	<path clip-path="url(#SVGID_8_)" d="M390.48,175.565c-6.594,22.153,17.237,61.581,50.42,75.873
		c-28.055-18.213-45.853-53.081-44.344-71.926C393.066,177.961,393.971,177.117,390.48,175.565"/>
</g>
</svg>
